<?xml version="1.0" encoding="UTF-8" standalone="no"?>
<!-- Created with Inkscape (http://www.inkscape.org/) -->

<svg
   width="107.42083mm"
   height="33.337502mm"
   viewBox="0 0 107.42083 33.337502"
   version="1.1"
   id="svg5"
   inkscape:version="1.1.2 (b8e25be8, 2022-02-05)"
   sodipodi:docname="circuit.svg"
   xmlns:inkscape="http://www.inkscape.org/namespaces/inkscape"
   xmlns:sodipodi="http://sodipodi.sourceforge.net/DTD/sodipodi-0.dtd"
   xmlns="http://www.w3.org/2000/svg"
   xmlns:svg="http://www.w3.org/2000/svg">
  <sodipodi:namedview
     id="namedview7"
     pagecolor="#ffffff"
     bordercolor="#666666"
     borderopacity="1.0"
     inkscape:pageshadow="2"
     inkscape:pageopacity="0.0"
     inkscape:pagecheckerboard="0"
     inkscape:document-units="mm"
     showgrid="true"
     inkscape:zoom="3.1108586"
     inkscape:cx="213.60662"
     inkscape:cy="87.274941"
     inkscape:window-width="1672"
     inkscape:window-height="989"
     inkscape:window-x="4"
     inkscape:window-y="29"
     inkscape:window-maximized="0"
     inkscape:current-layer="layer1">
    <inkscape:grid
       type="xygrid"
       id="grid824"
       originx="-44.846875"
       originy="-60.721876" />
  </sodipodi:namedview>
  <defs
     id="defs2" />
  <g
     inkscape:label="Layer 1"
     inkscape:groupmode="layer"
     id="layer1"
     transform="translate(-44.846876,-60.721876)">
    <rect
       style="fill:#000000;fill-opacity:0;stroke:#000000;stroke-width:0.192847;stroke-miterlimit:4;stroke-dasharray:none"
       id="rect848"
       width="42.333332"
       height="22.489584"
       x="58.208332"
       y="63.5" />
    <path
       style="fill:none;stroke:#000000;stroke-width:0.176045px;stroke-linecap:butt;stroke-linejoin:miter;stroke-opacity:1"
       d="m 100.54167,67.46875 c 6.61458,0 6.61458,0 6.61458,0 v 0"
       id="path1288" />
    <path
       style="fill:none;stroke:#0a0000;stroke-width:0.264583;stroke-linecap:butt;stroke-linejoin:miter;stroke-miterlimit:4;stroke-dasharray:none;stroke-opacity:1"
       d="m 47.625003,68.791666 c 10.58333,0 10.58333,0 10.58333,0 v 0"
       id="path1288-0" />
    <path
       style="fill:none;stroke:#000000;stroke-width:0.22268px;stroke-linecap:butt;stroke-linejoin:miter;stroke-opacity:1"
       d="m 107.15625,63.5 v 7.496527 h 21.16666 V 63.5 h -21.16666"
       id="path1290" />
    <path
       style="fill:none;stroke:#000000;stroke-width:0.22268px;stroke-linecap:butt;stroke-linejoin:miter;stroke-opacity:1"
       d="m 128.32292,67.46875 h 5.29167 v 0"
       id="path1292" />
    <path
       style="fill:none;stroke:#f50000;stroke-width:0.420825;stroke-linecap:butt;stroke-linejoin:miter;stroke-miterlimit:4;stroke-dasharray:none;stroke-opacity:1"
       d="m 100.54167,82.285417 h 33.07291"
       id="path1294" />
    <path
       style="fill:none;stroke:#f50000;stroke-width:0.44536;stroke-linecap:butt;stroke-linejoin:miter;stroke-miterlimit:4;stroke-dasharray:none;stroke-opacity:1"
       d="m 133.61458,82.285417 c 0,0 17.19792,-0.264584 17.09792,-7.755022 -0.10222,-7.65687 -17.09792,-7.061645 -17.09792,-7.061645"
       id="path1518"
       sodipodi:nodetypes="csc" />
    <path
       style="fill:none;stroke:#000000;stroke-width:0.264583px;stroke-linecap:butt;stroke-linejoin:miter;stroke-opacity:1"
       d="m 78.052083,85.989583 v 3.96875"
       id="path1927" />
    <path
       style="fill:none;stroke:#000000;stroke-width:0.264583px;stroke-linecap:butt;stroke-linejoin:miter;stroke-opacity:1"
       d="m 74.083333,89.958333 h 7.9375"
       id="path1929" />
    <path
       style="fill:none;stroke:#000000;stroke-width:0.264583px;stroke-linecap:butt;stroke-linejoin:miter;stroke-opacity:1"
       d="m 75.40625,91.281254 h 5.291667"
       id="path1931" />
    <path
       style="fill:none;stroke:#000000;stroke-width:0.264583px;stroke-linecap:butt;stroke-linejoin:miter;stroke-opacity:1"
       d="M 76.729167,92.604164 H 79.375"
       id="path1933" />
    <text
       xml:space="preserve"
       style="font-style:normal;font-variant:normal;font-weight:normal;font-stretch:normal;font-size:5.64444px;line-height:1.25;font-family:sans-serif;-inkscape-font-specification:'sans-serif, Normal';font-variant-ligatures:normal;font-variant-caps:normal;font-variant-numeric:normal;font-variant-east-asian:normal;fill:#000000;fill-opacity:1;stroke:none;stroke-width:0.265;stroke-miterlimit:4;stroke-dasharray:none"
       x="114.61332"
       y="69.272789"
       id="text3485"><tspan
         sodipodi:role="line"
         id="tspan3483"
         style="font-style:normal;font-variant:normal;font-weight:normal;font-stretch:normal;font-size:5.64444px;font-family:sans-serif;-inkscape-font-specification:'sans-serif, Normal';font-variant-ligatures:normal;font-variant-caps:normal;font-variant-numeric:normal;font-variant-east-asian:normal;stroke-width:0.265;stroke-miterlimit:4;stroke-dasharray:none"
         x="114.61332"
         y="69.272789">R</tspan></text>
    <text
       xml:space="preserve"
       style="font-style:normal;font-variant:normal;font-weight:normal;font-stretch:normal;font-size:5.64444px;line-height:1.25;font-family:sans-serif;-inkscape-font-specification:'sans-serif, Normal';font-variant-ligatures:normal;font-variant-caps:normal;font-variant-numeric:normal;font-variant-east-asian:normal;fill:#000000;fill-opacity:1;stroke:none;stroke-width:0.264583"
       x="67.559509"
       y="76.694984"
       id="text4713"><tspan
         sodipodi:role="line"
         id="tspan18172"
         x="67.559509"
         y="76.694984">Lock-In</tspan></text>
    <circle
       style="fill:#000000;fill-opacity:0;stroke:#000000;stroke-width:0.264999;stroke-miterlimit:4;stroke-dasharray:none"
       id="path10621"
       cx="46.963364"
       cy="68.731613"
       r="0.66145831" />
    <text
       xml:space="preserve"
       style="font-style:normal;font-weight:normal;font-size:5.64444px;line-height:1.25;font-family:sans-serif;fill:#000000;fill-opacity:1;stroke:none;stroke-width:0.264583"
       x="46.302082"
       y="66.145836"
       id="text11057"><tspan
         sodipodi:role="line"
         id="tspan11055"
         style="font-size:5.64444px;stroke-width:0.264583"
         x="46.302082"
         y="66.145836">U</tspan></text>
    <text
       xml:space="preserve"
       style="font-style:normal;font-variant:normal;font-weight:normal;font-stretch:normal;font-size:3.52778px;line-height:1.25;font-family:sans-serif;-inkscape-font-specification:'sans-serif, Normal';font-variant-ligatures:normal;font-variant-caps:normal;font-variant-numeric:normal;font-variant-east-asian:normal;fill:#000000;fill-opacity:1;stroke:none;stroke-width:0.264583"
       x="49.729568"
       y="67.649345"
       id="text13115"><tspan
         sodipodi:role="line"
         id="tspan13113"
         style="font-style:normal;font-variant:normal;font-weight:normal;font-stretch:normal;font-size:3.52778px;font-family:sans-serif;-inkscape-font-specification:'sans-serif, Normal';font-variant-ligatures:normal;font-variant-caps:normal;font-variant-numeric:normal;font-variant-east-asian:normal;stroke-width:0.264583"
         x="49.729568"
         y="67.649345">out</tspan></text>
  </g>
</svg>
