x-axis,1
second,Volt
-100.000E-03,-24.116E-03
-99.900E-03,-153.814E-03
-99.800E-03,-127.583E-03
-99.700E-03,-48.889E-03
-99.600E-03,+236.739E-03
-99.500E-03,-57.633E-03
-99.400E-03,-232.508E-03
-99.300E-03,-188.789E-03
-99.200E-03,-225.221E-03
-99.100E-03,-82.407E-03
-99.000E-03,-88.236E-03
-98.900E-03,+25.432E-03
-98.800E-03,-29.945E-03
-98.700E-03,-187.332E-03
-98.600E-03,+144.930E-03
-98.500E-03,+96.839E-03
-98.400E-03,+3.573E-03
-98.300E-03,+23.975E-03
-98.200E-03,-3.714E-03
-98.100E-03,+83.724E-03
-98.000E-03,+42.920E-03
-97.900E-03,+16.688E-03
-97.800E-03,-24.116E-03
-97.700E-03,-158.186E-03
-97.600E-03,-114.467E-03
-97.500E-03,-92.608E-03
-97.400E-03,-16.829E-03
-97.300E-03,+144.930E-03
-97.200E-03,-24.116E-03
-97.100E-03,-149.442E-03
-97.000E-03,+99.754E-03
-96.900E-03,-110.095E-03
-96.800E-03,-73.663E-03
-96.700E-03,+108.497E-03
-96.600E-03,-194.618E-03
-96.500E-03,-64.920E-03
-96.400E-03,-35.774E-03
-96.300E-03,+12.317E-03
-96.200E-03,+252.769E-03
-96.100E-03,-257.281E-03
-96.000E-03,-308.286E-03
-95.900E-03,-105.724E-03
-95.800E-03,-139.241E-03
-95.700E-03,-139.241E-03
-95.600E-03,+31.261E-03
-95.500E-03,+144.930E-03
-95.400E-03,-5.171E-03
-95.300E-03,-343.261E-03
-95.200E-03,+99.754E-03
-95.100E-03,-137.784E-03
-95.000E-03,+69.151E-03
-94.900E-03,+29.804E-03
-94.800E-03,-94.065E-03
-94.700E-03,-75.121E-03
-94.600E-03,-47.432E-03
-94.500E-03,-225.221E-03
-94.400E-03,+21.060E-03
-94.300E-03,-54.719E-03
-94.200E-03,-137.784E-03
-94.100E-03,-201.905E-03
-94.000E-03,+73.523E-03
-93.900E-03,-319.945E-03
-93.800E-03,-3.714E-03
-93.700E-03,-225.221E-03
-93.600E-03,-159.643E-03
-93.500E-03,-241.251E-03
-93.400E-03,-28.487E-03
-93.300E-03,-43.060E-03
-93.200E-03,-13.915E-03
-93.100E-03,+2.116E-03
-93.000E-03,-306.829E-03
-92.900E-03,-366.578E-03
-92.800E-03,-85.322E-03
-92.700E-03,-150.899E-03
-92.600E-03,-270.397E-03
-92.500E-03,-421.955E-03
-92.400E-03,-280.598E-03
-92.300E-03,-299.543E-03
-92.200E-03,-419.040E-03
-92.100E-03,-233.965E-03
-92.000E-03,-117.382E-03
-91.900E-03,-120.296E-03
-91.800E-03,-143.613E-03
-91.700E-03,-219.392E-03
-91.600E-03,-175.673E-03
-91.500E-03,-177.131E-03
-91.400E-03,-258.739E-03
-91.300E-03,-238.337E-03
-91.200E-03,-190.246E-03
-91.100E-03,-121.754E-03
-91.000E-03,-251.452E-03
-90.900E-03,-102.809E-03
-90.800E-03,-126.126E-03
-90.700E-03,+53.121E-03
-90.600E-03,+35.633E-03
-90.500E-03,-799E-06
-90.400E-03,-124.668E-03
-90.300E-03,+191.563E-03
-90.200E-03,+133.271E-03
-90.100E-03,-88.236E-03
-90.000E-03,+220.709E-03
-89.900E-03,+32.719E-03
-89.800E-03,+25.432E-03
-89.700E-03,+23.975E-03
-89.600E-03,+18.146E-03
-89.500E-03,-302.457E-03
-89.400E-03,+53.121E-03
-89.300E-03,-66.377E-03
-89.200E-03,+15.231E-03
-89.100E-03,-111.553E-03
-89.000E-03,-9.543E-03
-88.900E-03,+6.487E-03
-88.800E-03,+51.663E-03
-88.700E-03,+12.317E-03
-88.600E-03,+89.553E-03
-88.500E-03,+181.362E-03
-88.400E-03,-274.769E-03
-88.300E-03,+22.518E-03
-88.200E-03,+123.070E-03
-88.100E-03,-180.045E-03
-88.000E-03,-193.161E-03
-87.900E-03,+82.266E-03
-87.800E-03,-64.920E-03
-87.700E-03,-104.266E-03
-87.600E-03,-114.467E-03
-87.500E-03,-161.101E-03
-87.400E-03,-12.457E-03
-87.300E-03,-289.342E-03
-87.200E-03,-99.894E-03
-87.100E-03,+130.357E-03
-87.000E-03,+25.432E-03
-86.900E-03,-35.774E-03
-86.800E-03,+169.704E-03
-86.700E-03,+89.553E-03
-86.600E-03,-129.040E-03
-86.500E-03,-296.628E-03
-86.400E-03,+146.387E-03
-86.300E-03,-185.874E-03
-86.200E-03,-48.889E-03
-86.100E-03,-110.095E-03
-86.000E-03,-40.146E-03
-85.900E-03,-147.985E-03
-85.800E-03,-16.829E-03
-85.700E-03,-80.950E-03
-85.600E-03,+32.719E-03
-85.500E-03,-129.040E-03
-85.400E-03,-411.754E-03
-85.300E-03,-149.442E-03
-85.200E-03,+124.528E-03
-85.100E-03,-66.377E-03
-85.000E-03,-174.216E-03
-84.900E-03,-64.920E-03
-84.800E-03,+277.543E-03
-84.700E-03,-27.030E-03
-84.600E-03,+327.090E-03
-84.500E-03,+244.025E-03
-84.400E-03,+255.683E-03
-84.300E-03,+219.251E-03
-84.200E-03,+31.261E-03
-84.100E-03,+125.985E-03
-84.000E-03,+9.402E-03
-83.900E-03,-137.784E-03
-83.800E-03,+131.814E-03
-83.700E-03,+18.146E-03
-83.600E-03,+66.236E-03
-83.500E-03,+152.216E-03
-83.400E-03,+47.291E-03
-83.300E-03,+51.663E-03
-83.200E-03,+163.874E-03
-83.100E-03,+150.759E-03
-83.000E-03,-187.332E-03
-82.900E-03,-28.487E-03
-82.800E-03,+360.608E-03
-82.700E-03,+222.166E-03
-82.600E-03,+182.819E-03
-82.500E-03,+408.698E-03
-82.400E-03,-11.000E-03
-82.300E-03,+184.276E-03
-82.200E-03,+397.040E-03
-82.100E-03,+245.482E-03
-82.000E-03,+60.407E-03
-81.900E-03,-123.211E-03
-81.800E-03,-54.719E-03
-81.700E-03,+12.317E-03
-81.600E-03,+149.302E-03
-81.500E-03,+265.884E-03
-81.400E-03,+16.688E-03
-81.300E-03,-247.080E-03
-81.200E-03,+267.342E-03
-81.100E-03,-366.578E-03
-81.000E-03,-82.407E-03
-80.900E-03,+57.492E-03
-80.800E-03,-419.040E-03
-80.700E-03,+92.467E-03
-80.600E-03,+21.060E-03
-80.500E-03,-32.859E-03
-80.400E-03,-375.322E-03
-80.300E-03,-22.658E-03
-80.200E-03,+67.693E-03
-80.100E-03,+163.874E-03
-80.000E-03,-25.573E-03
-79.900E-03,-113.010E-03
-79.800E-03,+40.005E-03
-79.700E-03,+67.693E-03
-79.600E-03,+41.462E-03
-79.500E-03,-165.472E-03
-79.400E-03,-78.035E-03
-79.300E-03,-443.814E-03
-79.200E-03,-129.040E-03
-79.100E-03,-16.829E-03
-79.000E-03,-96.980E-03
-78.900E-03,+56.035E-03
-78.800E-03,-57.633E-03
-78.700E-03,-85.322E-03
-78.600E-03,-70.749E-03
-78.500E-03,+184.276E-03
-78.400E-03,+85.181E-03
-78.300E-03,-210.648E-03
-78.200E-03,-85.322E-03
-78.100E-03,+86.638E-03
-78.000E-03,+25.432E-03
-77.900E-03,+244.025E-03
-77.800E-03,-197.533E-03
-77.700E-03,+80.809E-03
-77.600E-03,-48.889E-03
-77.500E-03,+82.266E-03
-77.400E-03,+144.930E-03
-77.300E-03,-75.121E-03
-77.200E-03,+13.774E-03
-77.100E-03,+23.975E-03
-77.000E-03,-11.000E-03
-76.900E-03,-64.920E-03
-76.800E-03,-130.497E-03
-76.700E-03,+210.508E-03
-76.600E-03,-126.126E-03
-76.500E-03,-108.638E-03
-76.400E-03,-159.643E-03
-76.300E-03,-80.950E-03
-76.200E-03,+23.975E-03
-76.100E-03,+227.995E-03
-76.000E-03,-244.166E-03
-75.900E-03,-174.216E-03
-75.800E-03,+32.719E-03
-75.700E-03,-187.332E-03
-75.600E-03,+88.095E-03
-75.500E-03,-99.894E-03
-75.400E-03,-102.809E-03
-75.300E-03,+200.307E-03
-75.200E-03,+160.960E-03
-75.100E-03,-107.181E-03
-75.000E-03,-69.291E-03
-74.900E-03,+150.759E-03
-74.800E-03,-78.035E-03
-74.700E-03,+31.261E-03
-74.600E-03,-245.623E-03
-74.500E-03,-161.101E-03
-74.400E-03,-2.256E-03
-74.300E-03,-53.261E-03
-74.200E-03,-274.769E-03
-74.100E-03,-40.146E-03
-74.000E-03,-311.201E-03
-73.900E-03,-150.899E-03
-73.800E-03,-94.065E-03
-73.700E-03,+200.307E-03
-73.600E-03,-80.950E-03
-73.500E-03,+142.015E-03
-73.400E-03,+40.005E-03
-73.300E-03,-324.317E-03
-73.200E-03,-394.266E-03
-73.100E-03,-143.613E-03
-73.000E-03,+176.990E-03
-72.900E-03,-204.819E-03
-72.800E-03,-108.638E-03
-72.700E-03,-136.327E-03
-72.600E-03,-83.864E-03
-72.500E-03,+79.352E-03
-72.400E-03,-134.869E-03
-72.300E-03,-427.784E-03
-72.200E-03,-298.085E-03
-72.100E-03,-365.121E-03
-72.000E-03,-137.784E-03
-71.900E-03,-187.332E-03
-71.800E-03,-398.638E-03
-71.700E-03,+174.075E-03
-71.600E-03,-114.467E-03
-71.500E-03,-40.146E-03
-71.400E-03,-123.211E-03
-71.300E-03,-28.487E-03
-71.200E-03,-78.035E-03
-71.100E-03,+174.075E-03
-71.000E-03,-102.809E-03
-70.900E-03,-51.804E-03
-70.800E-03,+34.176E-03
-70.700E-03,+69.151E-03
-70.600E-03,-166.930E-03
-70.500E-03,-56.176E-03
-70.400E-03,-207.734E-03
-70.300E-03,-216.477E-03
-70.200E-03,-166.930E-03
-70.100E-03,-366.578E-03
-70.000E-03,-145.070E-03
-69.900E-03,-143.613E-03
-69.800E-03,-27.030E-03
-69.700E-03,-53.261E-03
-69.600E-03,+96.839E-03
-69.500E-03,-245.623E-03
-69.400E-03,-96.980E-03
-69.300E-03,-78.035E-03
-69.200E-03,-197.533E-03
-69.100E-03,-150.899E-03
-69.000E-03,+3.573E-03
-68.900E-03,-172.759E-03
-68.800E-03,+69.151E-03
-68.700E-03,-162.558E-03
-68.600E-03,+76.437E-03
-68.500E-03,-261.653E-03
-68.400E-03,-45.975E-03
-68.300E-03,-107.181E-03
-68.200E-03,+48.749E-03
-68.100E-03,-115.925E-03
-68.000E-03,-85.322E-03
-67.900E-03,-190.246E-03
-67.800E-03,-18.286E-03
-67.700E-03,+166.789E-03
-67.600E-03,-28.487E-03
-67.500E-03,-96.980E-03
-67.400E-03,+77.894E-03
-67.300E-03,-133.412E-03
-67.200E-03,-196.075E-03
-67.100E-03,+118.698E-03
-67.000E-03,-24.116E-03
-66.900E-03,+32.719E-03
-66.800E-03,-70.749E-03
-66.700E-03,+187.191E-03
-66.600E-03,+125.985E-03
-66.500E-03,+210.508E-03
-66.400E-03,+245.482E-03
-66.300E-03,-190.246E-03
-66.200E-03,-3.714E-03
-66.100E-03,-159.643E-03
-66.000E-03,-66.377E-03
-65.900E-03,+12.317E-03
-65.800E-03,-110.095E-03
-65.700E-03,-70.749E-03
-65.600E-03,-277.683E-03
-65.500E-03,-27.030E-03
-65.400E-03,+69.151E-03
-65.300E-03,-385.523E-03
-65.200E-03,-139.241E-03
-65.100E-03,-197.533E-03
-65.000E-03,+137.643E-03
-64.900E-03,-270.397E-03
-64.800E-03,-118.839E-03
-64.700E-03,+32.719E-03
-64.600E-03,-147.985E-03
-64.500E-03,+47.291E-03
-64.400E-03,+31.261E-03
-64.300E-03,-6.628E-03
-64.200E-03,-130.497E-03
-64.100E-03,-301.000E-03
-64.000E-03,+101.211E-03
-63.900E-03,+415.985E-03
-63.800E-03,+23.975E-03
-63.700E-03,+194.477E-03
-63.600E-03,-180.045E-03
-63.500E-03,-18.286E-03
-63.400E-03,+255.683E-03
-63.300E-03,+101.211E-03
-63.200E-03,+32.719E-03
-63.100E-03,+300.859E-03
-63.000E-03,-79.492E-03
-62.900E-03,+219.251E-03
-62.800E-03,+171.161E-03
-62.700E-03,-9.543E-03
-62.600E-03,+364.980E-03
-62.500E-03,+337.291E-03
-62.400E-03,+424.729E-03
-62.300E-03,+300.859E-03
-62.200E-03,+300.859E-03
-62.100E-03,+104.126E-03
-62.000E-03,+287.744E-03
-61.900E-03,-153.814E-03
-61.800E-03,-15.372E-03
-61.700E-03,+136.186E-03
-61.600E-03,+21.060E-03
-61.500E-03,+184.276E-03
-61.400E-03,+206.136E-03
-61.300E-03,+246.940E-03
-61.200E-03,+19.603E-03
-61.100E-03,-3.714E-03
-61.000E-03,-2.256E-03
-60.900E-03,-51.804E-03
-60.800E-03,-35.774E-03
-60.700E-03,+23.975E-03
-60.600E-03,+168.246E-03
-60.500E-03,+60.407E-03
-60.400E-03,+82.266E-03
-60.300E-03,-12.457E-03
-60.200E-03,-252.910E-03
-60.100E-03,-56.176E-03
-60.000E-03,+143.472E-03
-59.900E-03,-15.372E-03
-59.800E-03,-79.492E-03
-59.700E-03,+165.332E-03
-59.600E-03,-22.658E-03
-59.500E-03,+216.337E-03
-59.400E-03,+66.236E-03
-59.300E-03,-82.407E-03
-59.200E-03,-105.724E-03
-59.100E-03,+166.789E-03
-59.000E-03,-142.156E-03
-58.900E-03,-121.754E-03
-58.800E-03,-346.176E-03
-58.700E-03,+213.422E-03
-58.600E-03,+268.799E-03
-58.500E-03,-73.663E-03
-58.400E-03,+172.618E-03
-58.300E-03,-99.894E-03
-58.200E-03,+38.548E-03
-58.100E-03,+191.563E-03
-58.000E-03,-108.638E-03
-57.900E-03,+29.804E-03
-57.800E-03,-79.492E-03
-57.700E-03,-63.462E-03
-57.600E-03,-92.608E-03
-57.500E-03,-44.518E-03
-57.400E-03,-362.206E-03
-57.300E-03,-37.231E-03
-57.200E-03,-491.905E-03
-57.100E-03,+82.266E-03
-57.000E-03,-75.121E-03
-56.900E-03,-21.201E-03
-56.800E-03,-197.533E-03
-56.700E-03,+130.357E-03
-56.600E-03,-5.171E-03
-56.500E-03,-255.824E-03
-56.400E-03,+378.095E-03
-56.300E-03,+50.206E-03
-56.200E-03,-27.030E-03
-56.100E-03,+60.407E-03
-56.000E-03,+222.166E-03
-55.900E-03,+2.116E-03
-55.800E-03,+31.261E-03
-55.700E-03,+45.834E-03
-55.600E-03,+93.925E-03
-55.500E-03,+264.427E-03
-55.400E-03,-238.337E-03
-55.300E-03,-152.357E-03
-55.200E-03,+13.774E-03
-55.100E-03,-88.236E-03
-55.000E-03,-80.950E-03
-54.900E-03,+144.930E-03
-54.800E-03,-215.020E-03
-54.700E-03,-171.302E-03
-54.600E-03,-228.136E-03
-54.500E-03,-161.101E-03
-54.400E-03,-149.442E-03
-54.300E-03,-216.477E-03
-54.200E-03,+3.573E-03
-54.100E-03,-188.789E-03
-54.000E-03,-72.206E-03
-53.900E-03,-242.709E-03
-53.800E-03,-145.070E-03
-53.700E-03,-27.030E-03
-53.600E-03,+118.698E-03
-53.500E-03,-225.221E-03
-53.400E-03,+60.407E-03
-53.300E-03,-51.804E-03
-53.200E-03,-178.588E-03
-53.100E-03,-248.538E-03
-53.000E-03,+57.492E-03
-52.900E-03,+175.533E-03
-52.800E-03,-356.377E-03
-52.700E-03,-153.814E-03
-52.600E-03,-79.492E-03
-52.500E-03,-401.553E-03
-52.400E-03,-404.467E-03
-52.300E-03,-231.050E-03
-52.200E-03,-327.231E-03
-52.100E-03,+124.528E-03
-52.000E-03,-56.176E-03
-51.900E-03,-207.734E-03
-51.800E-03,-53.261E-03
-51.700E-03,-27.030E-03
-51.600E-03,-215.020E-03
-51.500E-03,-86.779E-03
-51.400E-03,-113.010E-03
-51.300E-03,-72.206E-03
-51.200E-03,-196.075E-03
-51.100E-03,-174.216E-03
-51.000E-03,-188.789E-03
-50.900E-03,+26.889E-03
-50.800E-03,-27.030E-03
-50.700E-03,-108.638E-03
-50.600E-03,-9.543E-03
-50.500E-03,+74.980E-03
-50.400E-03,-257.281E-03
-50.300E-03,-311.201E-03
-50.200E-03,-137.784E-03
-50.100E-03,-105.724E-03
-50.000E-03,-133.412E-03
-49.900E-03,+76.437E-03
-49.800E-03,-99.894E-03
-49.700E-03,-308.286E-03
-49.600E-03,+5.030E-03
-49.500E-03,+108.497E-03
-49.400E-03,+201.764E-03
-49.300E-03,+45.834E-03
-49.200E-03,-107.181E-03
-49.100E-03,+142.015E-03
-49.000E-03,+47.291E-03
-48.900E-03,-123.211E-03
-48.800E-03,+44.377E-03
-48.700E-03,-73.663E-03
-48.600E-03,-44.518E-03
-48.500E-03,-54.719E-03
-48.400E-03,+19.603E-03
-48.300E-03,+16.688E-03
-48.200E-03,+9.402E-03
-48.100E-03,+32.719E-03
-48.000E-03,-139.241E-03
-47.900E-03,-136.327E-03
-47.800E-03,-143.613E-03
-47.700E-03,-72.206E-03
-47.600E-03,+34.176E-03
-47.500E-03,-126.126E-03
-47.400E-03,+35.633E-03
-47.300E-03,+190.106E-03
-47.200E-03,-321.402E-03
-47.100E-03,-225.221E-03
-47.000E-03,-267.482E-03
-46.900E-03,-54.719E-03
-46.800E-03,-140.698E-03
-46.700E-03,+45.834E-03
-46.600E-03,+166.789E-03
-46.500E-03,+175.533E-03
-46.400E-03,+193.020E-03
-46.300E-03,-75.121E-03
-46.200E-03,-185.874E-03
-46.100E-03,-96.980E-03
-46.000E-03,+264.427E-03
-45.900E-03,-228.136E-03
-45.800E-03,-62.005E-03
-45.700E-03,+48.749E-03
-45.600E-03,-169.844E-03
-45.500E-03,-369.492E-03
-45.400E-03,-799E-06
-45.300E-03,-44.518E-03
-45.200E-03,-2.256E-03
-45.100E-03,-137.784E-03
-45.000E-03,-363.663E-03
-44.900E-03,+328.548E-03
-44.800E-03,-118.839E-03
-44.700E-03,-92.608E-03
-44.600E-03,-22.658E-03
-44.500E-03,+614.176E-03
-44.400E-03,+18.146E-03
-44.300E-03,+31.261E-03
-44.200E-03,-206.276E-03
-44.100E-03,+172.618E-03
-44.000E-03,+140.558E-03
-43.900E-03,-88.236E-03
-43.800E-03,+25.432E-03
-43.700E-03,-239.794E-03
-43.600E-03,+10.859E-03
-43.500E-03,-143.613E-03
-43.400E-03,+139.101E-03
-43.300E-03,-117.382E-03
-43.200E-03,+211.965E-03
-43.100E-03,+401.412E-03
-43.000E-03,+185.734E-03
-42.900E-03,-66.377E-03
-42.800E-03,+139.101E-03
-42.700E-03,+6.487E-03
-42.600E-03,+230.910E-03
-42.500E-03,-63.462E-03
-42.400E-03,+64.779E-03
-42.300E-03,+245.482E-03
-42.200E-03,+236.739E-03
-42.100E-03,+60.407E-03
-42.000E-03,+362.065E-03
-41.900E-03,+109.955E-03
-41.800E-03,+239.653E-03
-41.700E-03,-155.271E-03
-41.600E-03,-80.950E-03
-41.500E-03,+249.854E-03
-41.400E-03,-127.583E-03
-41.300E-03,+254.226E-03
-41.200E-03,+104.126E-03
-41.100E-03,+437.844E-03
-41.000E-03,+260.055E-03
-40.900E-03,-96.980E-03
-40.800E-03,-24.116E-03
-40.700E-03,+274.628E-03
-40.600E-03,+45.834E-03
-40.500E-03,-187.332E-03
-40.400E-03,+9.402E-03
-40.300E-03,+50.206E-03
-40.200E-03,-16.829E-03
-40.100E-03,-6.628E-03
-40.000E-03,-223.764E-03
-39.900E-03,+7.945E-03
-39.800E-03,-101.352E-03
-39.700E-03,-162.558E-03
-39.600E-03,+72.065E-03
-39.500E-03,+140.558E-03
-39.400E-03,-32.859E-03
-39.300E-03,+3.573E-03
-39.200E-03,-37.231E-03
-39.100E-03,+73.523E-03
-39.000E-03,-219.392E-03
-38.900E-03,+104.126E-03
-38.800E-03,-76.578E-03
-38.700E-03,+114.327E-03
-38.600E-03,-85.322E-03
-38.500E-03,+47.291E-03
-38.400E-03,-197.533E-03
-38.300E-03,-177.131E-03
-38.200E-03,+10.859E-03
-38.100E-03,+73.523E-03
-38.000E-03,-79.492E-03
-37.900E-03,-9.543E-03
-37.800E-03,-66.377E-03
-37.700E-03,+82.266E-03
-37.600E-03,-156.729E-03
-37.500E-03,-143.613E-03
-37.400E-03,-95.523E-03
-37.300E-03,+57.492E-03
-37.200E-03,-82.407E-03
-37.100E-03,-51.804E-03
-37.000E-03,+54.578E-03
-36.900E-03,-72.206E-03
-36.800E-03,+26.889E-03
-36.700E-03,+124.528E-03
-36.600E-03,+124.528E-03
-36.500E-03,+117.241E-03
-36.400E-03,-62.005E-03
-36.300E-03,-72.206E-03
-36.200E-03,-35.774E-03
-36.100E-03,-236.879E-03
-36.000E-03,-16.829E-03
-35.900E-03,+32.719E-03
-35.800E-03,-92.608E-03
-35.700E-03,+249.854E-03
-35.600E-03,+82.266E-03
-35.500E-03,+165.332E-03
-35.400E-03,+153.673E-03
-35.300E-03,+262.970E-03
-35.200E-03,-21.201E-03
-35.100E-03,+7.945E-03
-35.000E-03,+104.126E-03
-34.900E-03,-114.467E-03
-34.800E-03,+168.246E-03
-34.700E-03,-107.181E-03
-34.600E-03,+121.613E-03
-34.500E-03,-315.573E-03
-34.400E-03,-57.633E-03
-34.300E-03,-45.975E-03
-34.200E-03,-56.176E-03
-34.100E-03,-292.256E-03
-34.000E-03,+23.975E-03
-33.900E-03,+15.231E-03
-33.800E-03,-12.457E-03
-33.700E-03,-164.015E-03
-33.600E-03,-124.668E-03
-33.500E-03,-636.176E-03
-33.400E-03,-107.181E-03
-33.300E-03,-328.688E-03
-33.200E-03,-331.603E-03
-33.100E-03,-45.975E-03
-33.000E-03,+9.402E-03
-32.900E-03,-111.553E-03
-32.800E-03,-182.960E-03
-32.700E-03,-270.397E-03
-32.600E-03,-267.482E-03
-32.500E-03,-82.407E-03
-32.400E-03,-302.457E-03
-32.300E-03,-188.789E-03
-32.200E-03,-213.563E-03
-32.100E-03,-98.437E-03
-32.000E-03,-76.578E-03
-31.900E-03,-215.020E-03
-31.800E-03,-38.688E-03
-31.700E-03,-35.774E-03
-31.600E-03,-13.915E-03
-31.500E-03,-47.432E-03
-31.400E-03,-573.513E-03
-31.300E-03,-91.151E-03
-31.200E-03,-37.231E-03
-31.100E-03,-89.693E-03
-31.000E-03,-217.935E-03
-30.900E-03,-98.437E-03
-30.800E-03,-258.739E-03
-30.700E-03,-147.985E-03
-30.600E-03,+104.126E-03
-30.500E-03,+227.995E-03
-30.400E-03,+56.035E-03
-30.300E-03,-417.583E-03
-30.200E-03,-28.487E-03
-30.100E-03,+66.236E-03
-30.000E-03,+13.774E-03
-29.900E-03,+160.960E-03
-29.800E-03,-44.518E-03
-29.700E-03,+70.608E-03
-29.600E-03,-54.719E-03
-29.500E-03,-134.869E-03
-29.400E-03,-127.583E-03
-29.300E-03,-47.432E-03
-29.200E-03,-38.688E-03
-29.100E-03,-3.714E-03
-29.000E-03,+60.407E-03
-28.900E-03,+152.216E-03
-28.800E-03,-51.804E-03
-28.700E-03,-233.965E-03
-28.600E-03,+7.945E-03
-28.500E-03,+56.035E-03
-28.400E-03,-319.945E-03
-28.300E-03,-24.116E-03
-28.200E-03,+252.769E-03
-28.100E-03,-24.116E-03
-28.000E-03,-251.452E-03
-27.900E-03,-91.151E-03
-27.800E-03,+201.764E-03
-27.700E-03,-85.322E-03
-27.600E-03,-11.000E-03
-27.500E-03,+156.588E-03
-27.400E-03,+21.060E-03
-27.300E-03,+48.749E-03
-27.200E-03,+34.176E-03
-27.100E-03,+83.724E-03
-27.000E-03,-239.794E-03
-26.900E-03,-48.889E-03
-26.800E-03,-115.925E-03
-26.700E-03,-220.849E-03
-26.600E-03,-59.090E-03
-26.500E-03,-56.176E-03
-26.400E-03,+99.754E-03
-26.300E-03,+12.317E-03
-26.200E-03,-57.633E-03
-26.100E-03,+47.291E-03
-26.000E-03,-244.166E-03
-25.900E-03,+155.131E-03
-25.800E-03,-95.523E-03
-25.700E-03,-120.296E-03
-25.600E-03,+252.769E-03
-25.500E-03,-48.889E-03
-25.400E-03,-114.467E-03
-25.300E-03,+239.653E-03
-25.200E-03,+29.804E-03
-25.100E-03,-334.518E-03
-25.000E-03,+26.889E-03
-24.900E-03,-21.201E-03
-24.800E-03,+35.633E-03
-24.700E-03,-83.864E-03
-24.600E-03,+172.618E-03
-24.500E-03,+172.618E-03
-24.400E-03,+233.824E-03
-24.300E-03,-57.633E-03
-24.200E-03,-38.688E-03
-24.100E-03,+296.487E-03
-24.000E-03,+48.749E-03
-23.900E-03,+200.307E-03
-23.800E-03,+79.352E-03
-23.700E-03,+370.809E-03
-23.600E-03,-188.789E-03
-23.500E-03,+40.005E-03
-23.400E-03,+102.668E-03
-23.300E-03,+244.025E-03
-23.200E-03,+197.392E-03
-23.100E-03,-248.538E-03
-23.000E-03,+13.774E-03
-22.900E-03,+95.382E-03
-22.800E-03,-6.628E-03
-22.700E-03,-15.372E-03
-22.600E-03,+159.503E-03
-22.500E-03,+274.628E-03
-22.400E-03,+462.618E-03
-22.300E-03,+370.809E-03
-22.200E-03,+101.211E-03
-22.100E-03,+91.010E-03
-22.000E-03,+223.623E-03
-21.900E-03,+190.106E-03
-21.800E-03,+169.704E-03
-21.700E-03,+381.010E-03
-21.600E-03,-60.548E-03
-21.500E-03,+204.678E-03
-21.400E-03,+6.487E-03
-21.300E-03,+188.648E-03
-21.200E-03,+19.603E-03
-21.100E-03,-54.719E-03
-21.000E-03,-799E-06
-20.900E-03,-66.377E-03
-20.800E-03,-111.553E-03
-20.700E-03,+54.578E-03
-20.600E-03,+376.638E-03
-20.500E-03,+88.095E-03
-20.400E-03,-82.407E-03
-20.300E-03,+70.608E-03
-20.200E-03,+25.432E-03
-20.100E-03,-206.276E-03
-20.000E-03,-2.256E-03
-19.900E-03,+47.291E-03
-19.800E-03,+89.553E-03
-19.700E-03,-270.397E-03
-19.600E-03,-47.432E-03
-19.500E-03,-76.578E-03
-19.400E-03,-37.231E-03
-19.300E-03,+15.231E-03
-19.200E-03,-32.859E-03
-19.100E-03,-43.060E-03
-19.000E-03,+54.578E-03
-18.900E-03,-131.955E-03
-18.800E-03,+47.291E-03
-18.700E-03,-6.628E-03
-18.600E-03,-127.583E-03
-18.500E-03,-31.402E-03
-18.400E-03,+139.101E-03
-18.300E-03,-101.352E-03
-18.200E-03,-133.412E-03
-18.100E-03,-115.925E-03
-18.000E-03,+150.759E-03
-17.900E-03,+210.508E-03
-17.800E-03,-129.040E-03
-17.700E-03,-155.271E-03
-17.600E-03,+19.603E-03
-17.500E-03,+254.226E-03
-17.400E-03,+76.437E-03
-17.300E-03,+63.322E-03
-17.200E-03,+29.804E-03
-17.100E-03,+203.221E-03
-17.000E-03,+295.030E-03
-16.900E-03,+225.080E-03
-16.800E-03,-505.020E-03
-16.700E-03,-95.523E-03
-16.600E-03,+35.633E-03
-16.500E-03,+158.045E-03
-16.400E-03,+172.618E-03
-16.300E-03,-266.025E-03
-16.200E-03,+29.804E-03
-16.100E-03,-108.638E-03
-16.000E-03,+21.060E-03
-15.900E-03,-40.146E-03
-15.800E-03,+175.533E-03
-15.700E-03,+60.407E-03
-15.600E-03,+130.357E-03
-15.500E-03,-29.945E-03
-15.400E-03,+56.035E-03
-15.300E-03,+61.864E-03
-15.200E-03,-95.523E-03
-15.100E-03,+35.633E-03
-15.000E-03,+18.146E-03
-14.900E-03,-37.231E-03
-14.800E-03,+107.040E-03
-14.700E-03,+86.638E-03
-14.600E-03,-153.814E-03
-14.500E-03,+105.583E-03
-14.400E-03,-312.658E-03
-14.300E-03,-231.050E-03
-14.200E-03,-60.548E-03
-14.100E-03,+80.809E-03
-14.000E-03,-389.894E-03
-13.900E-03,-85.322E-03
-13.800E-03,-233.965E-03
-13.700E-03,-22.658E-03
-13.600E-03,-95.523E-03
-13.500E-03,-198.990E-03
-13.400E-03,-121.754E-03
-13.300E-03,-94.065E-03
-13.200E-03,-101.352E-03
-13.100E-03,-354.920E-03
-13.000E-03,-273.312E-03
-12.900E-03,+56.035E-03
-12.800E-03,-134.869E-03
-12.700E-03,-267.482E-03
-12.600E-03,-353.462E-03
-12.500E-03,-264.568E-03
-12.400E-03,-268.940E-03
-12.300E-03,-6.628E-03
-12.200E-03,-172.759E-03
-12.100E-03,-184.417E-03
-12.000E-03,-182.960E-03
-11.900E-03,-254.367E-03
-11.800E-03,-317.030E-03
-11.700E-03,-171.302E-03
-11.600E-03,+3.573E-03
-11.500E-03,-60.548E-03
-11.400E-03,-146.528E-03
-11.300E-03,-102.809E-03
-11.200E-03,-274.769E-03
-11.100E-03,-13.915E-03
-11.000E-03,-76.578E-03
-10.900E-03,-174.216E-03
-10.800E-03,-416.126E-03
-10.700E-03,-32.859E-03
-10.600E-03,-37.231E-03
-10.500E-03,+162.417E-03
-10.400E-03,-118.839E-03
-10.300E-03,+136.186E-03
-10.200E-03,+121.613E-03
-10.100E-03,-308.286E-03
-10.000E-03,+60.407E-03
-9.900E-03,-29.945E-03
-9.800E-03,-175.673E-03
-9.700E-03,+105.583E-03
-9.600E-03,+6.487E-03
-9.500E-03,-56.176E-03
-9.400E-03,-268.940E-03
-9.300E-03,+163.874E-03
-9.200E-03,-191.704E-03
-9.100E-03,+185.734E-03
-9.000E-03,+61.864E-03
-8.900E-03,+124.528E-03
-8.800E-03,-127.583E-03
-8.700E-03,+98.296E-03
-8.600E-03,-124.668E-03
-8.500E-03,-305.372E-03
-8.400E-03,+42.920E-03
-8.300E-03,+104.126E-03
-8.200E-03,-146.528E-03
-8.100E-03,-62.005E-03
-8.000E-03,+254.226E-03
-7.900E-03,-301.000E-03
-7.800E-03,+22.518E-03
-7.700E-03,+219.251E-03
-7.600E-03,-35.774E-03
-7.500E-03,-104.266E-03
-7.400E-03,+118.698E-03
-7.300E-03,+16.688E-03
-7.200E-03,-145.070E-03
-7.100E-03,+16.688E-03
-7.000E-03,+99.754E-03
-6.900E-03,-32.859E-03
-6.800E-03,-108.638E-03
-6.700E-03,+48.749E-03
-6.600E-03,-63.462E-03
-6.500E-03,+261.513E-03
-6.400E-03,+150.759E-03
-6.300E-03,+83.724E-03
-6.200E-03,-248.538E-03
-6.100E-03,+28.347E-03
-6.000E-03,-45.975E-03
-5.900E-03,-72.206E-03
-5.800E-03,+121.613E-03
-5.700E-03,-43.060E-03
-5.600E-03,-60.548E-03
-5.500E-03,+25.432E-03
-5.400E-03,+25.432E-03
-5.300E-03,-83.864E-03
-5.200E-03,-101.352E-03
-5.100E-03,+150.759E-03
-5.000E-03,+45.834E-03
-4.900E-03,+15.231E-03
-4.800E-03,-73.663E-03
-4.700E-03,+175.533E-03
-4.600E-03,-8.085E-03
-4.500E-03,+104.126E-03
-4.400E-03,+379.553E-03
-4.300E-03,+54.578E-03
-4.200E-03,-171.302E-03
-4.100E-03,+206.136E-03
-4.000E-03,+9.402E-03
-3.900E-03,+179.905E-03
-3.800E-03,+188.648E-03
-3.700E-03,+213.422E-03
-3.600E-03,+117.241E-03
-3.500E-03,-411.754E-03
-3.400E-03,-124.668E-03
-3.300E-03,-190.246E-03
-3.200E-03,+89.553E-03
-3.100E-03,+32.719E-03
-3.000E-03,-94.065E-03
-2.900E-03,+109.955E-03
-2.800E-03,-56.176E-03
-2.700E-03,+162.417E-03
-2.600E-03,+168.246E-03
-2.500E-03,+45.834E-03
-2.400E-03,+292.116E-03
-2.300E-03,+319.804E-03
-2.200E-03,+236.739E-03
-2.100E-03,+190.106E-03
-2.000E-03,+220.709E-03
-1.900E-03,-13.915E-03
-1.800E-03,-76.578E-03
-1.700E-03,+114.327E-03
-1.600E-03,+95.382E-03
-1.500E-03,+66.236E-03
-1.400E-03,-248.538E-03
-1.300E-03,+32.719E-03
-1.200E-03,+42.920E-03
-1.100E-03,-102.809E-03
-1.000E-03,-57.633E-03
-900E-06,+245.482E-03
-800E-06,+262.970E-03
-700E-06,-260.196E-03
-600E-06,+128.899E-03
-500E-06,-9.543E-03
-400E-06,+109.955E-03
-300E-06,-117.382E-03
-200E-06,-153.814E-03
-100E-06,+48.749E-03
-0.0E+00,+66.236E-03
+100E-06,-32.859E-03
+200E-06,+13.774E-03
+300E-06,+41.462E-03
+400E-06,+10.859E-03
+500E-06,-78.035E-03
+600E-06,+19.603E-03
+700E-06,+109.955E-03
+800E-06,-53.261E-03
+900E-06,-47.432E-03
+1.000E-03,+127.442E-03
+1.100E-03,-197.533E-03
+1.200E-03,-78.035E-03
+1.300E-03,-175.673E-03
+1.400E-03,-222.307E-03
+1.500E-03,-213.563E-03
+1.600E-03,-799E-06
+1.700E-03,+120.156E-03
+1.800E-03,-45.975E-03
+1.900E-03,-24.116E-03
+2.000E-03,-85.322E-03
+2.100E-03,+185.734E-03
+2.200E-03,-175.673E-03
+2.300E-03,-111.553E-03
+2.400E-03,+93.925E-03
+2.500E-03,-101.352E-03
+2.600E-03,+74.980E-03
+2.700E-03,-241.251E-03
+2.800E-03,-41.603E-03
+2.900E-03,+57.492E-03
+3.000E-03,+658E-06
+3.100E-03,-204.819E-03
+3.200E-03,-13.915E-03
+3.300E-03,-191.704E-03
+3.400E-03,-32.859E-03
+3.500E-03,+40.005E-03
+3.600E-03,-18.286E-03
+3.700E-03,-271.854E-03
+3.800E-03,+44.377E-03
+3.900E-03,-48.889E-03
+4.000E-03,-446.729E-03
+4.100E-03,-314.116E-03
+4.200E-03,-22.658E-03
+4.300E-03,-80.950E-03
+4.400E-03,+235.281E-03
+4.500E-03,+290.658E-03
+4.600E-03,-44.518E-03
+4.700E-03,+73.523E-03
+4.800E-03,-37.231E-03
+4.900E-03,+127.442E-03
+5.000E-03,-225.221E-03
+5.100E-03,+48.749E-03
+5.200E-03,-255.824E-03
+5.300E-03,+67.693E-03
+5.400E-03,+150.759E-03
+5.500E-03,+60.407E-03
+5.600E-03,-51.804E-03
+5.700E-03,+166.789E-03
+5.800E-03,-242.709E-03
+5.900E-03,-64.920E-03
+6.000E-03,+99.754E-03
+6.100E-03,-48.889E-03
+6.200E-03,-180.045E-03
+6.300E-03,+63.322E-03
+6.400E-03,-312.658E-03
+6.500E-03,-391.352E-03
+6.600E-03,-147.985E-03
+6.700E-03,-28.487E-03
+6.800E-03,-216.477E-03
+6.900E-03,-108.638E-03
+7.000E-03,-130.497E-03
+7.100E-03,-13.915E-03
+7.200E-03,-8.085E-03
+7.300E-03,-200.447E-03
+7.400E-03,-394.266E-03
+7.500E-03,-158.186E-03
+7.600E-03,-131.955E-03
+7.700E-03,-229.593E-03
+7.800E-03,-48.889E-03
+7.900E-03,-231.050E-03
+8.000E-03,-290.799E-03
+8.100E-03,-341.804E-03
+8.200E-03,+85.181E-03
+8.300E-03,-184.417E-03
+8.400E-03,-373.864E-03
+8.500E-03,+41.462E-03
+8.600E-03,+96.839E-03
+8.700E-03,-152.357E-03
+8.800E-03,-27.030E-03
+8.900E-03,-75.121E-03
+9.000E-03,-25.573E-03
+9.100E-03,+79.352E-03
+9.200E-03,-277.683E-03
+9.300E-03,+102.668E-03
+9.400E-03,-35.774E-03
+9.500E-03,+26.889E-03
+9.600E-03,+166.789E-03
+9.700E-03,-104.266E-03
+9.800E-03,+386.839E-03
+9.900E-03,-201.905E-03
+10.000E-03,-155.271E-03
+10.100E-03,-19.744E-03
+10.200E-03,-140.698E-03
+10.300E-03,+101.211E-03
+10.400E-03,-79.492E-03
+10.500E-03,-96.980E-03
+10.600E-03,-13.915E-03
+10.700E-03,-180.045E-03
+10.800E-03,+194.477E-03
+10.900E-03,-126.126E-03
+11.000E-03,+146.387E-03
+11.100E-03,-172.759E-03
+11.200E-03,-54.719E-03
+11.300E-03,-82.407E-03
+11.400E-03,-2.256E-03
+11.500E-03,-215.020E-03
+11.600E-03,+107.040E-03
+11.700E-03,+146.387E-03
+11.800E-03,+140.558E-03
+11.900E-03,-25.573E-03
+12.000E-03,-32.859E-03
+12.100E-03,-123.211E-03
+12.200E-03,-213.563E-03
+12.300E-03,-166.930E-03
+12.400E-03,+150.759E-03
+12.500E-03,-257.281E-03
+12.600E-03,-18.286E-03
+12.700E-03,+32.719E-03
+12.800E-03,-45.975E-03
+12.900E-03,-158.186E-03
+13.000E-03,+13.774E-03
+13.100E-03,+3.573E-03
+13.200E-03,-34.317E-03
+13.300E-03,+184.276E-03
+13.400E-03,-51.804E-03
+13.500E-03,+7.945E-03
+13.600E-03,+54.578E-03
+13.700E-03,+80.809E-03
+13.800E-03,-91.151E-03
+13.900E-03,-207.734E-03
+14.000E-03,+114.327E-03
+14.100E-03,-108.638E-03
+14.200E-03,+85.181E-03
+14.300E-03,-171.302E-03
+14.400E-03,+57.492E-03
+14.500E-03,+66.236E-03
+14.600E-03,-104.266E-03
+14.700E-03,-57.633E-03
+14.800E-03,+23.975E-03
+14.900E-03,+44.377E-03
+15.000E-03,-177.131E-03
+15.100E-03,+12.317E-03
+15.200E-03,-99.894E-03
+15.300E-03,-152.357E-03
+15.400E-03,-99.894E-03
+15.500E-03,+22.518E-03
+15.600E-03,+61.864E-03
+15.700E-03,-5.171E-03
+15.800E-03,+91.010E-03
+15.900E-03,+207.593E-03
+16.000E-03,+143.472E-03
+16.100E-03,-16.829E-03
+16.200E-03,+45.834E-03
+16.300E-03,-80.950E-03
+16.400E-03,+137.643E-03
+16.500E-03,+210.508E-03
+16.600E-03,-66.377E-03
+16.700E-03,+45.834E-03
+16.800E-03,-197.533E-03
+16.900E-03,-2.256E-03
+17.000E-03,+172.618E-03
+17.100E-03,+330.005E-03
+17.200E-03,+174.075E-03
+17.300E-03,+281.915E-03
+17.400E-03,+121.613E-03
+17.500E-03,+2.116E-03
+17.600E-03,-21.201E-03
+17.700E-03,+7.945E-03
+17.800E-03,+35.633E-03
+17.900E-03,+311.060E-03
+18.000E-03,+273.171E-03
+18.100E-03,+241.111E-03
+18.200E-03,-99.894E-03
+18.300E-03,+158.045E-03
+18.400E-03,+101.211E-03
+18.500E-03,+45.834E-03
+18.600E-03,+193.020E-03
+18.700E-03,+40.005E-03
+18.800E-03,-56.176E-03
+18.900E-03,-63.462E-03
+19.000E-03,+98.296E-03
+19.100E-03,+105.583E-03
+19.200E-03,+80.809E-03
+19.300E-03,+2.116E-03
+19.400E-03,+137.643E-03
+19.500E-03,-143.613E-03
+19.600E-03,-63.462E-03
+19.700E-03,-37.231E-03
+19.800E-03,+134.729E-03
+19.900E-03,+67.693E-03
+20.000E-03,-27.030E-03
+20.100E-03,-72.206E-03
+20.200E-03,-3.714E-03
+20.300E-03,-73.663E-03
+20.400E-03,+34.176E-03
+20.500E-03,+35.633E-03
+20.600E-03,+31.261E-03
+20.700E-03,-18.286E-03
+20.800E-03,+184.276E-03
+20.900E-03,+89.553E-03
+21.000E-03,+5.030E-03
+21.100E-03,-82.407E-03
+21.200E-03,-124.668E-03
+21.300E-03,-239.794E-03
+21.400E-03,+111.412E-03
+21.500E-03,+181.362E-03
+21.600E-03,+295.030E-03
+21.700E-03,+53.121E-03
+21.800E-03,+32.719E-03
+21.900E-03,-31.402E-03
+22.000E-03,-51.804E-03
+22.100E-03,-181.503E-03
+22.200E-03,+147.844E-03
+22.300E-03,+26.889E-03
+22.400E-03,-242.709E-03
+22.500E-03,-85.322E-03
+22.600E-03,+48.749E-03
+22.700E-03,+31.261E-03
+22.800E-03,-290.799E-03
+22.900E-03,+37.090E-03
+23.000E-03,+63.322E-03
+23.100E-03,+152.216E-03
+23.200E-03,+6.487E-03
+23.300E-03,-91.151E-03
+23.400E-03,-63.462E-03
+23.500E-03,-60.548E-03
+23.600E-03,-25.573E-03
+23.700E-03,-66.377E-03
+23.800E-03,-35.774E-03
+23.900E-03,+80.809E-03
+24.000E-03,-143.613E-03
+24.100E-03,+104.126E-03
+24.200E-03,+109.955E-03
+24.300E-03,-172.759E-03
+24.400E-03,-104.266E-03
+24.500E-03,-9.543E-03
+24.600E-03,+241.111E-03
+24.700E-03,-57.633E-03
+24.800E-03,-78.035E-03
+24.900E-03,+82.266E-03
+25.000E-03,-420.497E-03
+25.100E-03,-98.437E-03
+25.200E-03,-73.663E-03
+25.300E-03,-219.392E-03
+25.400E-03,-102.809E-03
+25.500E-03,-150.899E-03
+25.600E-03,-284.970E-03
+25.700E-03,+658E-06
+25.800E-03,+60.407E-03
+25.900E-03,-315.573E-03
+26.000E-03,-152.357E-03
+26.100E-03,+166.789E-03
+26.200E-03,-340.347E-03
+26.300E-03,-267.482E-03
+26.400E-03,+96.839E-03
+26.500E-03,-212.106E-03
+26.600E-03,-223.764E-03
+26.700E-03,-213.563E-03
+26.800E-03,-324.317E-03
+26.900E-03,-229.593E-03
+27.000E-03,-280.598E-03
+27.100E-03,-219.392E-03
+27.200E-03,+18.146E-03
+27.300E-03,-292.256E-03
+27.400E-03,-140.698E-03
+27.500E-03,-29.945E-03
+27.600E-03,-627.432E-03
+27.700E-03,-121.754E-03
+27.800E-03,-290.799E-03
+27.900E-03,-260.196E-03
+28.000E-03,-99.894E-03
+28.100E-03,-35.774E-03
+28.200E-03,+104.126E-03
+28.300E-03,-110.095E-03
+28.400E-03,-177.131E-03
+28.500E-03,-110.095E-03
+28.600E-03,-322.859E-03
+28.700E-03,-198.990E-03
+28.800E-03,+114.327E-03
+28.900E-03,+115.784E-03
+29.000E-03,-303.915E-03
+29.100E-03,+15.231E-03
+29.200E-03,+195.935E-03
+29.300E-03,-289.342E-03
+29.400E-03,+35.633E-03
+29.500E-03,-79.492E-03
+29.600E-03,-18.286E-03
+29.700E-03,-40.146E-03
+29.800E-03,+47.291E-03
+29.900E-03,-15.372E-03
+30.000E-03,+69.151E-03
+30.100E-03,-187.332E-03
+30.200E-03,+18.146E-03
+30.300E-03,+29.804E-03
+30.400E-03,-104.266E-03
+30.500E-03,+22.518E-03
+30.600E-03,+91.010E-03
+30.700E-03,+123.070E-03
+30.800E-03,-174.216E-03
+30.900E-03,+5.030E-03
+31.000E-03,-165.472E-03
+31.100E-03,-274.769E-03
+31.200E-03,-145.070E-03
+31.300E-03,+152.216E-03
+31.400E-03,-193.161E-03
+31.500E-03,-18.286E-03
+31.600E-03,-203.362E-03
+31.700E-03,-73.663E-03
+31.800E-03,-75.121E-03
+31.900E-03,+32.719E-03
+32.000E-03,-212.106E-03
+32.100E-03,-8.085E-03
+32.200E-03,+658E-06
+32.300E-03,+117.241E-03
+32.400E-03,-95.523E-03
+32.500E-03,+203.221E-03
+32.600E-03,+241.111E-03
+32.700E-03,+109.955E-03
+32.800E-03,-210.648E-03
+32.900E-03,+125.985E-03
+33.000E-03,-198.990E-03
+33.100E-03,-142.156E-03
+33.200E-03,+174.075E-03
+33.300E-03,-111.553E-03
+33.400E-03,+209.050E-03
+33.500E-03,+89.553E-03
+33.600E-03,+25.432E-03
+33.700E-03,+47.291E-03
+33.800E-03,-220.849E-03
+33.900E-03,+658E-06
+34.000E-03,+35.633E-03
+34.100E-03,+15.231E-03
+34.200E-03,-85.322E-03
+34.300E-03,-287.884E-03
+34.400E-03,+121.613E-03
+34.500E-03,+95.382E-03
+34.600E-03,-98.437E-03
+34.700E-03,-266.025E-03
+34.800E-03,-29.945E-03
+34.900E-03,-335.975E-03
+35.000E-03,+56.035E-03
+35.100E-03,+139.101E-03
+35.200E-03,-11.000E-03
+35.300E-03,-172.759E-03
+35.400E-03,-94.065E-03
+35.500E-03,+201.764E-03
+35.600E-03,+160.960E-03
+35.700E-03,-72.206E-03
+35.800E-03,-194.618E-03
+35.900E-03,+175.533E-03
+36.000E-03,+271.714E-03
+36.100E-03,-73.663E-03
+36.200E-03,+47.291E-03
+36.300E-03,+279.000E-03
+36.400E-03,+433.472E-03
+36.500E-03,+147.844E-03
+36.600E-03,+133.271E-03
+36.700E-03,+235.281E-03
+36.800E-03,+284.829E-03
+36.900E-03,+95.382E-03
+37.000E-03,+117.241E-03
+37.100E-03,-34.317E-03
+37.200E-03,+80.809E-03
+37.300E-03,+185.734E-03
+37.400E-03,+264.427E-03
+37.500E-03,+95.382E-03
+37.600E-03,-6.628E-03
+37.700E-03,-29.945E-03
+37.800E-03,+276.085E-03
+37.900E-03,+319.804E-03
+38.000E-03,+274.628E-03
+38.100E-03,+22.518E-03
+38.200E-03,+222.166E-03
+38.300E-03,+187.191E-03
+38.400E-03,+125.985E-03
+38.500E-03,-115.925E-03
+38.600E-03,+57.492E-03
+38.700E-03,-28.487E-03
+38.800E-03,-209.191E-03
+38.900E-03,+114.327E-03
+39.000E-03,+166.789E-03
+39.100E-03,+172.618E-03
+39.200E-03,-312.658E-03
+39.300E-03,-22.658E-03
+39.400E-03,+305.231E-03
+39.500E-03,+134.729E-03
+39.600E-03,+6.487E-03
+39.700E-03,-169.844E-03
+39.800E-03,-54.719E-03
+39.900E-03,-16.829E-03
+40.000E-03,+238.196E-03
+40.100E-03,+168.246E-03
+40.200E-03,+149.302E-03
+40.300E-03,+99.754E-03
+40.400E-03,+2.116E-03
+40.500E-03,-158.186E-03
+40.600E-03,+93.925E-03
+40.700E-03,+80.809E-03
+40.800E-03,-124.668E-03
+40.900E-03,+136.186E-03
+41.000E-03,+79.352E-03
+41.100E-03,-5.171E-03
+41.200E-03,+22.518E-03
+41.300E-03,-113.010E-03
+41.400E-03,-21.201E-03
+41.500E-03,+82.266E-03
+41.600E-03,+335.834E-03
+41.700E-03,+303.774E-03
+41.800E-03,+34.176E-03
+41.900E-03,+356.236E-03
+42.000E-03,-78.035E-03
+42.100E-03,-216.477E-03
+42.200E-03,+166.789E-03
+42.300E-03,-158.186E-03
+42.400E-03,-38.688E-03
+42.500E-03,-57.633E-03
+42.600E-03,-153.814E-03
+42.700E-03,-321.402E-03
+42.800E-03,-51.804E-03
+42.900E-03,-64.920E-03
+43.000E-03,-133.412E-03
+43.100E-03,+226.538E-03
+43.200E-03,-53.261E-03
+43.300E-03,+9.402E-03
+43.400E-03,-80.950E-03
+43.500E-03,+158.045E-03
+43.600E-03,+69.151E-03
+43.700E-03,-31.402E-03
+43.800E-03,-28.487E-03
+43.900E-03,-238.337E-03
+44.000E-03,-80.950E-03
+44.100E-03,-153.814E-03
+44.200E-03,+143.472E-03
+44.300E-03,+99.754E-03
+44.400E-03,+89.553E-03
+44.500E-03,+174.075E-03
+44.600E-03,+51.663E-03
+44.700E-03,+220.709E-03
+44.800E-03,+95.382E-03
+44.900E-03,+219.251E-03
+45.000E-03,-37.231E-03
+45.100E-03,+181.362E-03
+45.200E-03,+7.945E-03
+45.300E-03,-232.508E-03
+45.400E-03,+125.985E-03
+45.500E-03,-5.171E-03
+45.600E-03,-19.744E-03
+45.700E-03,-254.367E-03
+45.800E-03,+41.462E-03
+45.900E-03,-191.704E-03
+46.000E-03,+64.779E-03
+46.100E-03,-231.050E-03
+46.200E-03,+57.492E-03
+46.300E-03,-120.296E-03
+46.400E-03,-405.925E-03
+46.500E-03,-292.256E-03
+46.600E-03,-12.457E-03
+46.700E-03,-315.573E-03
+46.800E-03,-200.447E-03
+46.900E-03,-43.060E-03
+47.000E-03,+51.663E-03
+47.100E-03,-226.678E-03
+47.200E-03,-172.759E-03
+47.300E-03,-94.065E-03
+47.400E-03,-121.754E-03
+47.500E-03,-263.111E-03
+47.600E-03,-66.377E-03
+47.700E-03,-279.141E-03
+47.800E-03,-228.136E-03
+47.900E-03,-496.276E-03
+48.000E-03,-480.246E-03
+48.100E-03,-397.181E-03
+48.200E-03,+54.578E-03
+48.300E-03,-180.045E-03
+48.400E-03,-19.744E-03
+48.500E-03,+229.452E-03
+48.600E-03,+105.583E-03
+48.700E-03,-252.910E-03
+48.800E-03,-12.457E-03
+48.900E-03,+51.663E-03
+49.000E-03,-283.513E-03
+49.100E-03,-255.824E-03
+49.200E-03,-124.668E-03
+49.300E-03,-104.266E-03
+49.400E-03,-133.412E-03
+49.500E-03,+70.608E-03
+49.600E-03,+26.889E-03
+49.700E-03,-127.583E-03
+49.800E-03,+74.980E-03
+49.900E-03,-213.563E-03
+50.000E-03,+19.603E-03
+50.100E-03,-11.000E-03
+50.200E-03,+45.834E-03
+50.300E-03,+175.533E-03
+50.400E-03,+25.432E-03
+50.500E-03,-53.261E-03
+50.600E-03,+58.950E-03
+50.700E-03,-50.347E-03
+50.800E-03,+335.834E-03
+50.900E-03,+41.462E-03
+51.000E-03,-3.714E-03
+51.100E-03,-124.668E-03
+51.200E-03,-21.201E-03
+51.300E-03,-92.608E-03
+51.400E-03,-388.437E-03
+51.500E-03,+130.357E-03
+51.600E-03,+276.085E-03
+51.700E-03,-194.618E-03
+51.800E-03,-168.387E-03
+51.900E-03,+57.492E-03
+52.000E-03,+140.558E-03
+52.100E-03,+21.060E-03
+52.200E-03,-196.075E-03
+52.300E-03,-212.106E-03
+52.400E-03,-370.950E-03
+52.500E-03,-60.548E-03
+52.600E-03,+143.472E-03
+52.700E-03,+41.462E-03
+52.800E-03,-155.271E-03
+52.900E-03,+57.492E-03
+53.000E-03,+5.030E-03
+53.100E-03,+29.804E-03
+53.200E-03,+25.432E-03
+53.300E-03,-799E-06
+53.400E-03,+37.090E-03
+53.500E-03,+120.156E-03
+53.600E-03,-56.176E-03
+53.700E-03,+214.879E-03
+53.800E-03,-82.407E-03
+53.900E-03,-159.643E-03
+54.000E-03,-136.327E-03
+54.100E-03,-79.492E-03
+54.200E-03,-79.492E-03
+54.300E-03,-171.302E-03
+54.400E-03,-266.025E-03
+54.500E-03,-22.658E-03
+54.600E-03,+12.317E-03
+54.700E-03,-178.588E-03
+54.800E-03,-147.985E-03
+54.900E-03,-254.367E-03
+55.000E-03,-70.749E-03
+55.100E-03,+210.508E-03
+55.200E-03,-407.382E-03
+55.300E-03,-276.226E-03
+55.400E-03,+13.774E-03
+55.500E-03,-9.543E-03
+55.600E-03,-66.377E-03
+55.700E-03,+6.487E-03
+55.800E-03,+153.673E-03
+55.900E-03,+79.352E-03
+56.000E-03,+21.060E-03
+56.100E-03,-143.613E-03
+56.200E-03,+257.141E-03
+56.300E-03,-54.719E-03
+56.400E-03,+139.101E-03
+56.500E-03,+303.774E-03
+56.600E-03,-79.492E-03
+56.700E-03,+2.116E-03
+56.800E-03,-38.688E-03
+56.900E-03,+147.844E-03
+57.000E-03,+147.844E-03
+57.100E-03,+216.337E-03
+57.200E-03,+104.126E-03
+57.300E-03,+91.010E-03
+57.400E-03,+295.030E-03
+57.500E-03,+226.538E-03
+57.600E-03,+120.156E-03
+57.700E-03,+469.905E-03
+57.800E-03,+217.794E-03
+57.900E-03,+82.266E-03
+58.000E-03,-8.085E-03
+58.100E-03,+194.477E-03
+58.200E-03,-18.286E-03
+58.300E-03,+53.121E-03
+58.400E-03,+143.472E-03
+58.500E-03,+131.814E-03
+58.600E-03,-147.985E-03
+58.700E-03,+102.668E-03
+58.800E-03,-44.518E-03
+58.900E-03,-203.362E-03
+59.000E-03,+25.432E-03
+59.100E-03,+308.146E-03
+59.200E-03,+53.121E-03
+59.300E-03,+88.095E-03
+59.400E-03,-209.191E-03
+59.500E-03,+238.196E-03
+59.600E-03,-34.317E-03
+59.700E-03,+86.638E-03
+59.800E-03,+316.889E-03
+59.900E-03,-143.613E-03
+60.000E-03,-111.553E-03
+60.100E-03,+155.131E-03
+60.200E-03,+41.462E-03
+60.300E-03,+120.156E-03
+60.400E-03,-96.980E-03
+60.500E-03,-140.698E-03
+60.600E-03,+31.261E-03
+60.700E-03,-75.121E-03
+60.800E-03,+76.437E-03
+60.900E-03,-210.648E-03
+61.000E-03,+190.106E-03
+61.100E-03,+88.095E-03
+61.200E-03,+142.015E-03
+61.300E-03,+40.005E-03
+61.400E-03,+73.523E-03
+61.500E-03,-283.513E-03
+61.600E-03,-187.332E-03
+61.700E-03,+86.638E-03
+61.800E-03,+57.492E-03
+61.900E-03,-28.487E-03
+62.000E-03,-64.920E-03
+62.100E-03,-260.196E-03
+62.200E-03,+13.774E-03
+62.300E-03,-276.226E-03
+62.400E-03,-301.000E-03
+62.500E-03,+149.302E-03
+62.600E-03,+222.166E-03
+62.700E-03,-311.201E-03
+62.800E-03,-273.312E-03
+62.900E-03,+279.000E-03
+63.000E-03,+7.945E-03
+63.100E-03,+156.588E-03
+63.200E-03,+142.015E-03
+63.300E-03,-62.005E-03
+63.400E-03,+53.121E-03
+63.500E-03,-182.960E-03
+63.600E-03,-229.593E-03
+63.700E-03,+67.693E-03
+63.800E-03,-3.714E-03
+63.900E-03,-360.749E-03
+64.000E-03,-191.704E-03
+64.100E-03,+10.859E-03
+64.200E-03,-440.899E-03
+64.300E-03,-48.889E-03
+64.400E-03,-162.558E-03
+64.500E-03,+42.920E-03
+64.600E-03,-273.312E-03
+64.700E-03,+105.583E-03
+64.800E-03,+187.191E-03
+64.900E-03,-226.678E-03
+65.000E-03,-280.598E-03
+65.100E-03,-43.060E-03
+65.200E-03,+57.492E-03
+65.300E-03,-188.789E-03
+65.400E-03,-79.492E-03
+65.500E-03,+88.095E-03
+65.600E-03,-212.106E-03
+65.700E-03,+3.573E-03
+65.800E-03,+658E-06
+65.900E-03,+182.819E-03
+66.000E-03,-80.950E-03
+66.100E-03,-268.940E-03
+66.200E-03,-133.412E-03
+66.300E-03,-29.945E-03
+66.400E-03,-60.548E-03
+66.500E-03,-13.915E-03
+66.600E-03,-146.528E-03
+66.700E-03,-200.447E-03
+66.800E-03,-799E-06
+66.900E-03,+114.327E-03
+67.000E-03,-209.191E-03
+67.100E-03,-166.930E-03
+67.200E-03,-101.352E-03
+67.300E-03,-403.010E-03
+67.400E-03,+2.116E-03
+67.500E-03,-373.864E-03
+67.600E-03,-417.583E-03
+67.700E-03,-129.040E-03
+67.800E-03,-416.126E-03
+67.900E-03,-439.442E-03
+68.000E-03,-319.945E-03
+68.100E-03,+74.980E-03
+68.200E-03,-156.729E-03
+68.300E-03,-51.804E-03
+68.400E-03,-207.734E-03
+68.500E-03,-228.136E-03
+68.600E-03,-254.367E-03
+68.700E-03,-143.613E-03
+68.800E-03,+37.090E-03
+68.900E-03,+41.462E-03
+69.000E-03,-207.734E-03
+69.100E-03,-127.583E-03
+69.200E-03,-295.171E-03
+69.300E-03,-500.648E-03
+69.400E-03,-210.648E-03
+69.500E-03,-83.864E-03
+69.600E-03,-140.698E-03
+69.700E-03,-41.603E-03
+69.800E-03,-12.457E-03
+69.900E-03,+99.754E-03
+70.000E-03,+178.447E-03
+70.100E-03,-114.467E-03
+70.200E-03,-121.754E-03
+70.300E-03,+16.688E-03
+70.400E-03,+41.462E-03
+70.500E-03,+283.372E-03
+70.600E-03,+271.714E-03
+70.700E-03,-16.829E-03
+70.800E-03,+86.638E-03
+70.900E-03,+50.206E-03
+71.000E-03,+88.095E-03
+71.100E-03,+25.432E-03
+71.200E-03,+280.457E-03
+71.300E-03,-134.869E-03
+71.400E-03,+32.719E-03
+71.500E-03,+150.759E-03
+71.600E-03,-6.628E-03
+71.700E-03,+139.101E-03
+71.800E-03,-153.814E-03
+71.900E-03,-41.603E-03
+72.000E-03,-376.779E-03
+72.100E-03,+223.623E-03
+72.200E-03,-200.447E-03
+72.300E-03,-293.714E-03
+72.400E-03,+85.181E-03
+72.500E-03,+239.653E-03
+72.600E-03,-118.839E-03
+72.700E-03,+26.889E-03
+72.800E-03,+34.176E-03
+72.900E-03,+22.518E-03
+73.000E-03,+142.015E-03
+73.100E-03,-156.729E-03
+73.200E-03,+109.955E-03
+73.300E-03,+7.945E-03
+73.400E-03,+149.302E-03
+73.500E-03,-25.573E-03
+73.600E-03,-168.387E-03
+73.700E-03,-2.256E-03
+73.800E-03,-238.337E-03
+73.900E-03,-11.000E-03
+74.000E-03,-56.176E-03
+74.100E-03,+179.905E-03
+74.200E-03,-72.206E-03
+74.300E-03,+80.809E-03
+74.400E-03,-184.417E-03
+74.500E-03,+63.322E-03
+74.600E-03,-198.990E-03
+74.700E-03,-143.613E-03
+74.800E-03,+80.809E-03
+74.900E-03,-104.266E-03
+75.000E-03,-31.402E-03
+75.100E-03,-21.201E-03
+75.200E-03,-111.553E-03
+75.300E-03,+96.839E-03
+75.400E-03,+85.181E-03
+75.500E-03,-8.085E-03
+75.600E-03,-12.457E-03
+75.700E-03,-102.809E-03
+75.800E-03,+292.116E-03
+75.900E-03,+28.347E-03
+76.000E-03,+18.146E-03
+76.100E-03,+143.472E-03
+76.200E-03,+322.719E-03
+76.300E-03,-156.729E-03
+76.400E-03,+41.462E-03
+76.500E-03,+91.010E-03
+76.600E-03,+34.176E-03
+76.700E-03,+140.558E-03
+76.800E-03,+165.332E-03
+76.900E-03,+23.975E-03
+77.000E-03,+9.402E-03
+77.100E-03,+124.528E-03
+77.200E-03,+13.774E-03
+77.300E-03,-309.744E-03
+77.400E-03,+528.196E-03
+77.500E-03,+286.286E-03
+77.600E-03,+249.854E-03
+77.700E-03,+124.528E-03
+77.800E-03,+155.131E-03
+77.900E-03,-67.834E-03
+78.000E-03,+257.141E-03
+78.100E-03,+182.819E-03
+78.200E-03,+150.759E-03
+78.300E-03,+22.518E-03
+78.400E-03,+123.070E-03
+78.500E-03,+178.447E-03
+78.600E-03,+26.889E-03
+78.700E-03,-136.327E-03
+78.800E-03,-114.467E-03
+78.900E-03,+299.402E-03
+79.000E-03,+137.643E-03
+79.100E-03,+204.678E-03
+79.200E-03,-124.668E-03
+79.300E-03,+104.126E-03
+79.400E-03,-88.236E-03
+79.500E-03,-147.985E-03
+79.600E-03,+219.251E-03
+79.700E-03,+26.889E-03
+79.800E-03,-12.457E-03
+79.900E-03,-99.894E-03
+80.000E-03,-99.894E-03
+80.100E-03,+2.116E-03
+80.200E-03,+134.729E-03
+80.300E-03,+13.774E-03
+80.400E-03,+466.990E-03
+80.500E-03,-120.296E-03
+80.600E-03,+125.985E-03
+80.700E-03,-222.307E-03
+80.800E-03,-207.734E-03
+80.900E-03,-21.201E-03
+81.000E-03,+140.558E-03
+81.100E-03,-44.518E-03
+81.200E-03,+88.095E-03
+81.300E-03,-118.839E-03
+81.400E-03,-201.905E-03
+81.500E-03,+265.884E-03
+81.600E-03,-114.467E-03
+81.700E-03,-6.628E-03
+81.800E-03,-8.085E-03
+81.900E-03,-79.492E-03
+82.000E-03,-263.111E-03
+82.100E-03,-296.628E-03
+82.200E-03,-6.628E-03
+82.300E-03,+95.382E-03
+82.400E-03,-126.126E-03
+82.500E-03,-107.181E-03
+82.600E-03,-88.236E-03
+82.700E-03,+140.558E-03
+82.800E-03,-8.085E-03
+82.900E-03,-143.613E-03
+83.000E-03,-124.668E-03
+83.100E-03,-115.925E-03
+83.200E-03,-238.337E-03
+83.300E-03,-63.462E-03
+83.400E-03,-69.291E-03
+83.500E-03,-34.317E-03
+83.600E-03,-395.724E-03
+83.700E-03,+44.377E-03
+83.800E-03,+2.116E-03
+83.900E-03,-229.593E-03
+84.000E-03,-117.382E-03
+84.100E-03,-145.070E-03
+84.200E-03,+194.477E-03
+84.300E-03,-91.151E-03
+84.400E-03,+201.764E-03
+84.500E-03,+158.045E-03
+84.600E-03,+175.533E-03
+84.700E-03,-131.955E-03
+84.800E-03,+40.005E-03
+84.900E-03,+194.477E-03
+85.000E-03,+31.261E-03
+85.100E-03,-137.784E-03
+85.200E-03,-111.553E-03
+85.300E-03,-3.714E-03
+85.400E-03,-290.799E-03
+85.500E-03,-117.382E-03
+85.600E-03,-80.950E-03
+85.700E-03,-134.869E-03
+85.800E-03,-25.573E-03
+85.900E-03,+2.116E-03
+86.000E-03,-113.010E-03
+86.100E-03,-188.789E-03
+86.200E-03,-344.719E-03
+86.300E-03,-266.025E-03
+86.400E-03,+50.206E-03
+86.500E-03,-91.151E-03
+86.600E-03,-63.462E-03
+86.700E-03,-398.638E-03
+86.800E-03,-62.005E-03
+86.900E-03,-79.492E-03
+87.000E-03,-150.899E-03
+87.100E-03,-76.578E-03
+87.200E-03,-290.799E-03
+87.300E-03,-50.347E-03
+87.400E-03,-505.020E-03
+87.500E-03,-161.101E-03
+87.600E-03,-376.779E-03
+87.700E-03,-507.935E-03
+87.800E-03,-279.141E-03
+87.900E-03,-130.497E-03
+88.000E-03,-50.347E-03
+88.100E-03,-255.824E-03
+88.200E-03,-394.266E-03
+88.300E-03,+121.613E-03
+88.400E-03,-76.578E-03
+88.500E-03,-209.191E-03
+88.600E-03,-255.824E-03
+88.700E-03,-292.256E-03
+88.800E-03,-220.849E-03
+88.900E-03,-35.774E-03
+89.000E-03,-129.040E-03
+89.100E-03,+66.236E-03
+89.200E-03,-28.487E-03
+89.300E-03,-257.281E-03
+89.400E-03,-102.809E-03
+89.500E-03,+364.980E-03
+89.600E-03,-32.859E-03
+89.700E-03,-101.352E-03
+89.800E-03,+195.935E-03
+89.900E-03,+40.005E-03
+90.000E-03,-5.171E-03
+90.100E-03,+89.553E-03
+90.200E-03,-9.543E-03
+90.300E-03,-171.302E-03
+90.400E-03,+50.206E-03
+90.500E-03,-121.754E-03
+90.600E-03,+91.010E-03
+90.700E-03,+5.030E-03
+90.800E-03,-252.910E-03
+90.900E-03,+115.784E-03
+91.000E-03,+19.603E-03
+91.100E-03,-101.352E-03
+91.200E-03,-54.719E-03
+91.300E-03,-102.809E-03
+91.400E-03,-114.467E-03
+91.500E-03,+114.327E-03
+91.600E-03,-38.688E-03
+91.700E-03,-150.899E-03
+91.800E-03,+165.332E-03
+91.900E-03,+193.020E-03
+92.000E-03,+136.186E-03
+92.100E-03,-70.749E-03
+92.200E-03,-225.221E-03
+92.300E-03,+115.784E-03
+92.400E-03,-34.317E-03
+92.500E-03,+3.573E-03
+92.600E-03,+58.950E-03
+92.700E-03,-43.060E-03
+92.800E-03,-191.704E-03
+92.900E-03,-196.075E-03
+93.000E-03,+10.859E-03
+93.100E-03,-117.382E-03
+93.200E-03,-108.638E-03
+93.300E-03,-69.291E-03
+93.400E-03,+462.618E-03
+93.500E-03,-88.236E-03
+93.600E-03,+66.236E-03
+93.700E-03,-146.528E-03
+93.800E-03,+136.186E-03
+93.900E-03,+133.271E-03
+94.000E-03,+128.899E-03
+94.100E-03,+58.950E-03
+94.200E-03,+63.322E-03
+94.300E-03,-117.382E-03
+94.400E-03,-64.920E-03
+94.500E-03,-41.603E-03
+94.600E-03,-337.432E-03
+94.700E-03,-127.583E-03
+94.800E-03,+80.809E-03
+94.900E-03,-73.663E-03
+95.000E-03,-233.965E-03
+95.100E-03,+195.935E-03
+95.200E-03,-108.638E-03
+95.300E-03,+123.070E-03
+95.400E-03,-67.834E-03
+95.500E-03,+128.899E-03
+95.600E-03,+121.613E-03
+95.700E-03,-35.774E-03
+95.800E-03,+195.935E-03
+95.900E-03,+153.673E-03
+96.000E-03,-21.201E-03
+96.100E-03,-64.920E-03
+96.200E-03,+101.211E-03
+96.300E-03,+12.317E-03
+96.400E-03,+127.442E-03
+96.500E-03,-34.317E-03
+96.600E-03,+153.673E-03
+96.700E-03,+187.191E-03
+96.800E-03,+334.377E-03
+96.900E-03,-203.362E-03
+97.000E-03,-63.462E-03
+97.100E-03,+389.754E-03
+97.200E-03,-13.915E-03
+97.300E-03,+216.337E-03
+97.400E-03,+434.930E-03
+97.500E-03,+260.055E-03
+97.600E-03,+430.558E-03
+97.700E-03,+399.955E-03
+97.800E-03,+555.884E-03
+97.900E-03,+261.513E-03
+98.000E-03,+146.387E-03
+98.100E-03,+15.231E-03
+98.200E-03,+181.362E-03
+98.300E-03,-182.960E-03
+98.400E-03,-6.628E-03
+98.500E-03,+45.834E-03
+98.600E-03,+32.719E-03
+98.700E-03,+6.487E-03
+98.800E-03,+5.030E-03
+98.900E-03,-96.980E-03
+99.000E-03,+10.859E-03
+99.100E-03,+66.236E-03
+99.200E-03,-190.246E-03
+99.300E-03,+354.779E-03
+99.400E-03,+150.759E-03
+99.500E-03,+399.955E-03
+99.600E-03,-8.085E-03
+99.700E-03,-286.427E-03
+99.800E-03,+158.045E-03
+99.900E-03,-257.281E-03
