x-axis,1
second,Volt
-100.0000E-06,+221.0050263E-03
-99.9000E-06,+221.0050263E-03
-99.8000E-06,+221.0050263E-03
-99.7000E-06,+77.4300072E-03
-99.6000E-06,+163.5750186E-03
-99.5000E-06,+19.9999996E-03
-99.4000E-06,+19.9999996E-03
-99.3000E-06,-181.0050271E-03
-99.2000E-06,+19.9999996E-03
-99.1000E-06,-8.7150043E-03
-99.0000E-06,-181.0050271E-03
-98.9000E-06,-181.0050271E-03
-98.8000E-06,-181.0050271E-03
-98.7000E-06,-181.0050271E-03
-98.6000E-06,+19.9999996E-03
-98.5000E-06,-181.0050271E-03
-98.4000E-06,-181.0050271E-03
-98.3000E-06,-382.0100538E-03
-98.2000E-06,-181.0050271E-03
-98.1000E-06,-382.0100538E-03
-98.0000E-06,-382.0100538E-03
-97.9000E-06,-382.0100538E-03
-97.8000E-06,-583.0150805E-03
-97.7000E-06,-382.0100538E-03
-97.6000E-06,-583.0150805E-03
-97.5000E-06,-583.0150805E-03
-97.4000E-06,-583.0150805E-03
-97.3000E-06,-583.0150805E-03
-97.2000E-06,-382.0100538E-03
-97.1000E-06,-583.0150805E-03
-97.0000E-06,-382.0100538E-03
-96.9000E-06,-382.0100538E-03
-96.8000E-06,-382.0100538E-03
-96.7000E-06,-353.2950500E-03
-96.6000E-06,-181.0050271E-03
-96.5000E-06,+19.9999996E-03
-96.4000E-06,+221.0050263E-03
-96.3000E-06,+249.7200301E-03
-96.2000E-06,+565.5850720E-03
-96.1000E-06,+565.5850720E-03
-96.0000E-06,+623.0150796E-03
-95.9000E-06,+824.0201063E-03
-95.8000E-06,+824.0201063E-03
-95.7000E-06,+824.0201063E-03
-95.6000E-06,+824.0201063E-03
-95.5000E-06,+824.0201063E-03
-95.4000E-06,+967.5951254E-03
-95.3000E-06,+824.0201063E-03
-95.2000E-06,+709.1600911E-03
-95.1000E-06,+623.0150796E-03
-95.0000E-06,+422.0100529E-03
-94.9000E-06,+393.2950491E-03
-94.8000E-06,+19.9999996E-03
-94.7000E-06,-181.0050271E-03
-94.6000E-06,-382.0100538E-03
-94.5000E-06,-583.0150805E-03
-94.4000E-06,-784.0201072E-03
-94.3000E-06,-985.0251339E-03
-94.2000E-06,-985.0251339E-03
-94.1000E-06,-841.4501149E-03
-94.0000E-06,-985.0251339E-03
-93.9000E-06,-985.0251339E-03
-93.8000E-06,-985.0251339E-03
-93.7000E-06,-985.0251339E-03
-93.6000E-06,-870.1651187E-03
-93.5000E-06,-755.3051034E-03
-93.4000E-06,-583.0150805E-03
-93.3000E-06,-583.0150805E-03
-93.2000E-06,-583.0150805E-03
-93.1000E-06,-382.0100538E-03
-93.0000E-06,-181.0050271E-03
-92.9000E-06,-66.1450119E-03
-92.8000E-06,+19.9999996E-03
-92.7000E-06,+221.0050263E-03
-92.6000E-06,+221.0050263E-03
-92.5000E-06,+221.0050263E-03
-92.4000E-06,+422.0100529E-03
-92.3000E-06,+623.0150796E-03
-92.2000E-06,+623.0150796E-03
-92.1000E-06,+450.7250568E-03
-92.0000E-06,+565.5850720E-03
-91.9000E-06,+565.5850720E-03
-91.8000E-06,+422.0100529E-03
-91.7000E-06,+422.0100529E-03
-91.6000E-06,+422.0100529E-03
-91.5000E-06,+221.0050263E-03
-91.4000E-06,+192.2900224E-03
-91.3000E-06,+19.9999996E-03
-91.2000E-06,-181.0050271E-03
-91.1000E-06,-382.0100538E-03
-91.0000E-06,-583.0150805E-03
-90.9000E-06,-583.0150805E-03
-90.8000E-06,-784.0201072E-03
-90.7000E-06,-784.0201072E-03
-90.6000E-06,-784.0201072E-03
-90.5000E-06,-841.4501149E-03
-90.4000E-06,-784.0201072E-03
-90.3000E-06,-784.0201072E-03
-90.2000E-06,-583.0150805E-03
-90.1000E-06,-583.0150805E-03
-90.0000E-06,-583.0150805E-03
-89.9000E-06,-382.0100538E-03
-89.8000E-06,-324.5800462E-03
-89.7000E-06,-181.0050271E-03
-89.6000E-06,-66.1450119E-03
-89.5000E-06,-181.0050271E-03
-89.4000E-06,+19.9999996E-03
-89.3000E-06,+19.9999996E-03
-89.2000E-06,+19.9999996E-03
-89.1000E-06,+19.9999996E-03
-89.0000E-06,+19.9999996E-03
-88.9000E-06,+221.0050263E-03
-88.8000E-06,+19.9999996E-03
-88.7000E-06,+19.9999996E-03
-88.6000E-06,+48.7150034E-03
-88.5000E-06,+77.4300072E-03
-88.4000E-06,+221.0050263E-03
-88.3000E-06,+48.7150034E-03
-88.2000E-06,+221.0050263E-03
-88.1000E-06,+221.0050263E-03
-88.0000E-06,+221.0050263E-03
-87.9000E-06,+422.0100529E-03
-87.8000E-06,+422.0100529E-03
-87.7000E-06,+422.0100529E-03
-87.6000E-06,+422.0100529E-03
-87.5000E-06,+422.0100529E-03
-87.4000E-06,+422.0100529E-03
-87.3000E-06,+422.0100529E-03
-87.2000E-06,+422.0100529E-03
-87.1000E-06,+221.0050263E-03
-87.0000E-06,+221.0050263E-03
-86.9000E-06,+221.0050263E-03
-86.8000E-06,+19.9999996E-03
-86.7000E-06,-181.0050271E-03
-86.6000E-06,-181.0050271E-03
-86.5000E-06,-382.0100538E-03
-86.4000E-06,-382.0100538E-03
-86.3000E-06,-382.0100538E-03
-86.2000E-06,-583.0150805E-03
-86.1000E-06,-468.1550653E-03
-86.0000E-06,-583.0150805E-03
-85.9000E-06,-583.0150805E-03
-85.8000E-06,-554.3000767E-03
-85.7000E-06,-382.0100538E-03
-85.6000E-06,-382.0100538E-03
-85.5000E-06,-209.7200309E-03
-85.4000E-06,-181.0050271E-03
-85.3000E-06,-181.0050271E-03
-85.2000E-06,-66.1450119E-03
-85.1000E-06,+19.9999996E-03
-85.0000E-06,-181.0050271E-03
-84.9000E-06,-181.0050271E-03
-84.8000E-06,-181.0050271E-03
-84.7000E-06,-181.0050271E-03
-84.6000E-06,+19.9999995E-03
-84.5000E-06,-181.0050271E-03
-84.4000E-06,-181.0050271E-03
-84.3000E-06,-181.0050271E-03
-84.2000E-06,-37.4300081E-03
-84.1000E-06,-181.0050271E-03
-84.0000E-06,-181.0050271E-03
-83.9000E-06,-181.0050271E-03
-83.8000E-06,-181.0050271E-03
-83.7000E-06,-181.0050271E-03
-83.6000E-06,-181.0050271E-03
-83.5000E-06,-181.0050271E-03
-83.4000E-06,-181.0050271E-03
-83.3000E-06,-181.0050271E-03
-83.2000E-06,-382.0100538E-03
-83.1000E-06,-181.0050271E-03
-83.0000E-06,-181.0050271E-03
-82.9000E-06,-181.0050271E-03
-82.8000E-06,-181.0050271E-03
-82.7000E-06,+19.9999996E-03
-82.6000E-06,+19.9999996E-03
-82.5000E-06,+221.0050263E-03
-82.4000E-06,+221.0050263E-03
-82.3000E-06,+249.7200301E-03
-82.2000E-06,+364.5800453E-03
-82.1000E-06,+422.0100529E-03
-82.0000E-06,+221.0050263E-03
-81.9000E-06,+221.0050263E-03
-81.8000E-06,+221.0050263E-03
-81.7000E-06,+221.0050263E-03
-81.6000E-06,+221.0050263E-03
-81.5000E-06,+77.4300072E-03
-81.4000E-06,+19.9999996E-03
-81.3000E-06,+19.9999996E-03
-81.2000E-06,-181.0050271E-03
-81.1000E-06,-181.0050271E-03
-81.0000E-06,-181.0050271E-03
-80.9000E-06,-209.7200310E-03
-80.8000E-06,-382.0100538E-03
-80.7000E-06,-382.0100538E-03
-80.6000E-06,-410.7250576E-03
-80.5000E-06,-583.0150805E-03
-80.4000E-06,-583.0150805E-03
-80.3000E-06,-583.0150805E-03
-80.2000E-06,-382.0100538E-03
-80.1000E-06,-525.5850729E-03
-80.0000E-06,-382.0100538E-03
-79.9000E-06,-382.0100538E-03
-79.8000E-06,-295.8650424E-03
-79.7000E-06,-181.0050271E-03
-79.6000E-06,-181.0050271E-03
-79.5000E-06,+19.9999996E-03
-79.4000E-06,+77.4300072E-03
-79.3000E-06,+221.0050263E-03
-79.2000E-06,+221.0050263E-03
-79.1000E-06,+221.0050263E-03
-79.0000E-06,+422.0100529E-03
-78.9000E-06,+335.8650415E-03
-78.8000E-06,+249.7200301E-03
-78.7000E-06,+221.0050263E-03
-78.6000E-06,+221.0050263E-03
-78.5000E-06,+48.7150033E-03
-78.4000E-06,+19.9999996E-03
-78.3000E-06,+19.9999996E-03
-78.2000E-06,-181.0050271E-03
-78.1000E-06,-353.2950500E-03
-78.0000E-06,-238.4350347E-03
-77.9000E-06,-181.0050271E-03
-77.8000E-06,-382.0100538E-03
-77.7000E-06,-468.1550653E-03
-77.6000E-06,-181.0050271E-03
-77.5000E-06,-295.8650424E-03
-77.4000E-06,-181.0050271E-03
-77.3000E-06,-181.0050271E-03
-77.2000E-06,-181.0050271E-03
-77.1000E-06,-181.0050271E-03
-77.0000E-06,-94.8600157E-03
-76.9000E-06,-181.0050271E-03
-76.8000E-06,-181.0050271E-03
-76.7000E-06,-152.2900233E-03
-76.6000E-06,-324.5800462E-03
-76.5000E-06,-37.4300081E-03
-76.4000E-06,-181.0050271E-03
-76.3000E-06,-181.0050271E-03
-76.2000E-06,-181.0050271E-03
-76.1000E-06,-181.0050271E-03
-76.0000E-06,-181.0050271E-03
-75.9000E-06,+19.9999996E-03
-75.8000E-06,-123.5750195E-03
-75.7000E-06,+48.7150033E-03
-75.6000E-06,+106.1450110E-03
-75.5000E-06,+221.0050263E-03
-75.4000E-06,+134.8600148E-03
-75.3000E-06,+192.2900224E-03
-75.2000E-06,+163.5750187E-03
-75.1000E-06,+163.5750186E-03
-75.0000E-06,+19.9999996E-03
-74.9000E-06,+19.9999996E-03
-74.8000E-06,+19.9999996E-03
-74.7000E-06,+19.9999996E-03
-74.6000E-06,-181.0050271E-03
-74.5000E-06,-123.5750196E-03
-74.4000E-06,-123.5750195E-03
-74.3000E-06,+19.9999996E-03
-74.2000E-06,+19.9999996E-03
-74.1000E-06,+19.9999996E-03
-74.0000E-06,+19.9999996E-03
-73.9000E-06,+19.9999996E-03
-73.8000E-06,+77.4300071E-03
-73.7000E-06,+19.9999996E-03
-73.6000E-06,+19.9999996E-03
-73.5000E-06,+19.9999996E-03
-73.4000E-06,+19.9999996E-03
-73.3000E-06,-181.0050271E-03
-73.2000E-06,-181.0050271E-03
-73.1000E-06,-238.4350347E-03
-73.0000E-06,-181.0050271E-03
-72.9000E-06,-353.2950501E-03
-72.8000E-06,-382.0100538E-03
-72.7000E-06,-583.0150805E-03
-72.6000E-06,-583.0150805E-03
-72.5000E-06,-583.0150805E-03
-72.4000E-06,-583.0150805E-03
-72.3000E-06,-583.0150805E-03
-72.2000E-06,-382.0100538E-03
-72.1000E-06,-382.0100538E-03
-72.0000E-06,-382.0100538E-03
-71.9000E-06,-181.0050271E-03
-71.8000E-06,-181.0050271E-03
-71.7000E-06,+19.9999996E-03
-71.6000E-06,+163.5750186E-03
-71.5000E-06,+192.2900225E-03
-71.4000E-06,+335.8650415E-03
-71.3000E-06,+221.0050263E-03
-71.2000E-06,+335.8650415E-03
-71.1000E-06,+221.0050263E-03
-71.0000E-06,+221.0050263E-03
-70.9000E-06,+163.5750186E-03
-70.8000E-06,+221.0050263E-03
-70.7000E-06,+221.0050263E-03
-70.6000E-06,+19.9999996E-03
-70.5000E-06,+19.9999996E-03
-70.4000E-06,+19.9999996E-03
-70.3000E-06,+19.9999996E-03
-70.2000E-06,-181.0050271E-03
-70.1000E-06,-8.7150042E-03
-70.0000E-06,-94.8600157E-03
-69.9000E-06,-181.0050271E-03
-69.8000E-06,-181.0050271E-03
-69.7000E-06,-181.0050271E-03
-69.6000E-06,-181.0050271E-03
-69.5000E-06,-181.0050271E-03
-69.4000E-06,-181.0050271E-03
-69.3000E-06,-382.0100538E-03
-69.2000E-06,-382.0100538E-03
-69.1000E-06,-382.0100538E-03
-69.0000E-06,-554.3000767E-03
-68.9000E-06,-382.0100538E-03
-68.8000E-06,-382.0100538E-03
-68.7000E-06,-410.7250576E-03
-68.6000E-06,-295.8650424E-03
-68.5000E-06,-181.0050271E-03
-68.4000E-06,-181.0050271E-03
-68.3000E-06,-152.2900233E-03
-68.2000E-06,+19.9999996E-03
-68.1000E-06,-123.5750195E-03
-68.0000E-06,+192.2900225E-03
-67.9000E-06,+19.9999996E-03
-67.8000E-06,+19.9999996E-03
-67.7000E-06,+134.8600149E-03
-67.6000E-06,+221.0050263E-03
-67.5000E-06,+19.9999996E-03
-67.4000E-06,+77.4300072E-03
-67.3000E-06,+19.9999996E-03
-67.2000E-06,+19.9999996E-03
-67.1000E-06,-181.0050271E-03
-67.0000E-06,-181.0050271E-03
-66.9000E-06,-181.0050271E-03
-66.8000E-06,-181.0050271E-03
-66.7000E-06,-181.0050271E-03
-66.6000E-06,-209.7200309E-03
-66.5000E-06,-181.0050271E-03
-66.4000E-06,-181.0050271E-03
-66.3000E-06,-181.0050271E-03
-66.2000E-06,-8.7150043E-03
-66.1000E-06,+19.9999996E-03
-66.0000E-06,+19.9999996E-03
-65.9000E-06,+19.9999996E-03
-65.8000E-06,+221.0050263E-03
-65.7000E-06,+221.0050262E-03
-65.6000E-06,+221.0050263E-03
-65.5000E-06,+19.9999996E-03
-65.4000E-06,+19.9999996E-03
-65.3000E-06,+19.9999996E-03
-65.2000E-06,-181.0050271E-03
-65.1000E-06,-181.0050271E-03
-65.0000E-06,-181.0050271E-03
-64.9000E-06,-181.0050271E-03
-64.8000E-06,-181.0050271E-03
-64.7000E-06,-181.0050271E-03
-64.6000E-06,-123.5750195E-03
-64.5000E-06,+19.9999996E-03
-64.4000E-06,-181.0050271E-03
-64.3000E-06,+19.9999995E-03
-64.2000E-06,-181.0050271E-03
-64.1000E-06,-181.0050271E-03
-64.0000E-06,-123.5750196E-03
-63.9000E-06,-181.0050271E-03
-63.8000E-06,-8.7150042E-03
-63.7000E-06,-181.0050271E-03
-63.6000E-06,+19.9999996E-03
-63.5000E-06,+19.9999996E-03
-63.4000E-06,+19.9999996E-03
-63.3000E-06,+77.4300071E-03
-63.2000E-06,+19.9999996E-03
-63.1000E-06,+19.9999996E-03
-63.0000E-06,+106.1450110E-03
-62.9000E-06,+19.9999996E-03
-62.8000E-06,+19.9999996E-03
-62.7000E-06,-181.0050271E-03
-62.6000E-06,-37.4300080E-03
-62.5000E-06,-181.0050271E-03
-62.4000E-06,-353.2950501E-03
-62.3000E-06,-267.1500386E-03
-62.2000E-06,-181.0050271E-03
-62.1000E-06,-382.0100538E-03
-62.0000E-06,-382.0100538E-03
-61.9000E-06,-382.0100538E-03
-61.8000E-06,-382.0100538E-03
-61.7000E-06,-382.0100538E-03
-61.6000E-06,-468.1550653E-03
-61.5000E-06,-382.0100538E-03
-61.4000E-06,-382.0100538E-03
-61.3000E-06,-382.0100538E-03
-61.2000E-06,-382.0100538E-03
-61.1000E-06,-382.0100538E-03
-61.0000E-06,-382.0100538E-03
-60.9000E-06,-181.0050271E-03
-60.8000E-06,+19.9999996E-03
-60.7000E-06,+19.9999996E-03
-60.6000E-06,+19.9999996E-03
-60.5000E-06,+19.9999996E-03
-60.4000E-06,+19.9999996E-03
-60.3000E-06,+48.7150033E-03
-60.2000E-06,+221.0050263E-03
-60.1000E-06,+221.0050262E-03
-60.0000E-06,+134.8600149E-03
-59.9000E-06,+221.0050263E-03
-59.8000E-06,+163.5750187E-03
-59.7000E-06,+221.0050263E-03
-59.6000E-06,+19.9999996E-03
-59.5000E-06,+134.8600148E-03
-59.4000E-06,+19.9999996E-03
-59.3000E-06,+19.9999996E-03
-59.2000E-06,+19.9999996E-03
-59.1000E-06,+19.9999996E-03
-59.0000E-06,+77.4300072E-03
-58.9000E-06,-8.7150042E-03
-58.8000E-06,+19.9999996E-03
-58.7000E-06,+19.9999996E-03
-58.6000E-06,-181.0050271E-03
-58.5000E-06,-181.0050271E-03
-58.4000E-06,-181.0050271E-03
-58.3000E-06,-181.0050271E-03
-58.2000E-06,-181.0050271E-03
-58.1000E-06,-181.0050271E-03
-58.0000E-06,-181.0050271E-03
-57.9000E-06,-66.1450118E-03
-57.8000E-06,-181.0050271E-03
-57.7000E-06,+19.9999996E-03
-57.6000E-06,+19.9999996E-03
-57.5000E-06,+19.9999996E-03
-57.4000E-06,+19.9999996E-03
-57.3000E-06,+19.9999996E-03
-57.2000E-06,+19.9999996E-03
-57.1000E-06,+19.9999996E-03
-57.0000E-06,-37.4300080E-03
-56.9000E-06,-181.0050271E-03
-56.8000E-06,-181.0050271E-03
-56.7000E-06,-66.1450119E-03
-56.6000E-06,+19.9999996E-03
-56.5000E-06,-181.0050271E-03
-56.4000E-06,-181.0050271E-03
-56.3000E-06,-37.4300080E-03
-56.2000E-06,-181.0050271E-03
-56.1000E-06,-8.7150042E-03
-56.0000E-06,+19.9999996E-03
-55.9000E-06,+19.9999996E-03
-55.8000E-06,-66.1450118E-03
-55.7000E-06,+19.9999996E-03
-55.6000E-06,-181.0050271E-03
-55.5000E-06,-37.4300081E-03
-55.4000E-06,-181.0050271E-03
-55.3000E-06,-66.1450120E-03
-55.2000E-06,-181.0050271E-03
-55.1000E-06,-181.0050271E-03
-55.0000E-06,-209.7200310E-03
-54.9000E-06,-324.5800463E-03
-54.8000E-06,-382.0100538E-03
-54.7000E-06,-382.0100538E-03
-54.6000E-06,-382.0100538E-03
-54.5000E-06,-583.0150805E-03
-54.4000E-06,-468.1550652E-03
-54.3000E-06,-382.0100538E-03
-54.2000E-06,-382.0100538E-03
-54.1000E-06,-382.0100538E-03
-54.0000E-06,-382.0100538E-03
-53.9000E-06,-181.0050271E-03
-53.8000E-06,-181.0050271E-03
-53.7000E-06,-66.1450118E-03
-53.6000E-06,-181.0050271E-03
-53.5000E-06,+19.9999996E-03
-53.4000E-06,+77.4300072E-03
-53.3000E-06,+19.9999996E-03
-53.2000E-06,+19.9999996E-03
-53.1000E-06,+19.9999996E-03
-53.0000E-06,+221.0050263E-03
-52.9000E-06,+221.0050263E-03
-52.8000E-06,+163.5750187E-03
-52.7000E-06,+221.0050263E-03
-52.6000E-06,+221.0050263E-03
-52.5000E-06,+221.0050263E-03
-52.4000E-06,+221.0050263E-03
-52.3000E-06,+221.0050263E-03
-52.2000E-06,+221.0050263E-03
-52.1000E-06,+221.0050263E-03
-52.0000E-06,+221.0050263E-03
-51.9000E-06,+221.0050263E-03
-51.8000E-06,+134.8600147E-03
-51.7000E-06,+19.9999996E-03
-51.6000E-06,-66.1450118E-03
-51.5000E-06,-181.0050271E-03
-51.4000E-06,-181.0050271E-03
-51.3000E-06,-324.5800461E-03
-51.2000E-06,-410.7250576E-03
-51.1000E-06,-496.8700690E-03
-51.0000E-06,-382.0100539E-03
-50.9000E-06,-697.8750959E-03
-50.8000E-06,-583.0150805E-03
-50.7000E-06,-583.0150805E-03
-50.6000E-06,-525.5850728E-03
-50.5000E-06,-554.3000768E-03
-50.4000E-06,-382.0100538E-03
-50.3000E-06,-382.0100539E-03
-50.2000E-06,-382.0100538E-03
-50.1000E-06,-181.0050271E-03
-50.0000E-06,-181.0050271E-03
-49.9000E-06,+19.9999996E-03
-49.8000E-06,+19.9999996E-03
-49.7000E-06,+19.9999996E-03
-49.6000E-06,+19.9999996E-03
-49.5000E-06,+221.0050263E-03
-49.4000E-06,+249.7200301E-03
-49.3000E-06,+221.0050263E-03
-49.2000E-06,+422.0100529E-03
-49.1000E-06,+422.0100529E-03
-49.0000E-06,+422.0100529E-03
-48.9000E-06,+221.0050263E-03
-48.8000E-06,+335.8650416E-03
-48.7000E-06,+221.0050263E-03
-48.6000E-06,+364.5800454E-03
-48.5000E-06,+19.9999996E-03
-48.4000E-06,+192.2900225E-03
-48.3000E-06,+19.9999996E-03
-48.2000E-06,+19.9999996E-03
-48.1000E-06,-181.0050271E-03
-48.0000E-06,-181.0050271E-03
-47.9000E-06,-181.0050271E-03
-47.8000E-06,-324.5800461E-03
-47.7000E-06,-382.0100538E-03
-47.6000E-06,-382.0100538E-03
-47.5000E-06,-382.0100538E-03
-47.4000E-06,-468.1550652E-03
-47.3000E-06,-583.0150805E-03
-47.2000E-06,-583.0150805E-03
-47.1000E-06,-583.0150805E-03
-47.0000E-06,-583.0150805E-03
-46.9000E-06,-382.0100538E-03
-46.8000E-06,-382.0100538E-03
-46.7000E-06,-181.0050271E-03
-46.6000E-06,-152.2900233E-03
-46.5000E-06,+19.9999996E-03
-46.4000E-06,+19.9999996E-03
-46.3000E-06,+19.9999996E-03
-46.2000E-06,+221.0050263E-03
-46.1000E-06,+221.0050263E-03
-46.0000E-06,+221.0050263E-03
-45.9000E-06,+221.0050263E-03
-45.8000E-06,+221.0050263E-03
-45.7000E-06,+278.4350340E-03
-45.6000E-06,+249.7200300E-03
-45.5000E-06,+221.0050263E-03
-45.4000E-06,+221.0050263E-03
-45.3000E-06,+106.1450109E-03
-45.2000E-06,+19.9999996E-03
-45.1000E-06,+19.9999996E-03
-45.0000E-06,+19.9999996E-03
-44.9000E-06,-152.2900234E-03
-44.8000E-06,-94.8600156E-03
-44.7000E-06,-181.0050271E-03
-44.6000E-06,-181.0050271E-03
-44.5000E-06,-181.0050271E-03
-44.4000E-06,-324.5800463E-03
-44.3000E-06,-324.5800461E-03
-44.2000E-06,-382.0100538E-03
-44.1000E-06,-382.0100538E-03
-44.0000E-06,-382.0100538E-03
-43.9000E-06,-382.0100538E-03
-43.8000E-06,-382.0100538E-03
-43.7000E-06,-324.5800463E-03
-43.6000E-06,-382.0100538E-03
-43.5000E-06,-382.0100538E-03
-43.4000E-06,-382.0100538E-03
-43.3000E-06,-382.0100538E-03
-43.2000E-06,-267.1500385E-03
-43.1000E-06,-382.0100538E-03
-43.0000E-06,-238.4350347E-03
-42.9000E-06,-238.4350349E-03
-42.8000E-06,-209.7200309E-03
-42.7000E-06,-181.0050271E-03
-42.6000E-06,-181.0050271E-03
-42.5000E-06,-66.1450118E-03
-42.4000E-06,+192.2900224E-03
-42.3000E-06,+19.9999996E-03
-42.2000E-06,+221.0050263E-03
-42.1000E-06,+422.0100529E-03
-42.0000E-06,+422.0100529E-03
-41.9000E-06,+623.0150796E-03
-41.8000E-06,+737.8750950E-03
-41.7000E-06,+623.0150796E-03
-41.6000E-06,+623.0150796E-03
-41.5000E-06,+623.0150796E-03
-41.4000E-06,+422.0100529E-03
-41.3000E-06,+307.1500378E-03
-41.2000E-06,+221.0050263E-03
-41.1000E-06,+106.1450109E-03
-41.0000E-06,+19.9999996E-03
-40.9000E-06,-181.0050271E-03
-40.8000E-06,-382.0100538E-03
-40.7000E-06,-382.0100538E-03
-40.6000E-06,-382.0100538E-03
-40.5000E-06,-583.0150805E-03
-40.4000E-06,-784.0201072E-03
-40.3000E-06,-583.0150805E-03
-40.2000E-06,-784.0201072E-03
-40.1000E-06,-784.0201072E-03
-40.0000E-06,-611.7300843E-03
-39.9000E-06,-669.1600921E-03
-39.8000E-06,-583.0150805E-03
-39.7000E-06,-382.0100538E-03
-39.6000E-06,-382.0100538E-03
-39.5000E-06,-181.0050271E-03
-39.4000E-06,+19.9999996E-03
-39.3000E-06,+19.9999996E-03
-39.2000E-06,+19.9999996E-03
-39.1000E-06,+221.0050262E-03
-39.0000E-06,+221.0050263E-03
-38.9000E-06,+192.2900224E-03
-38.8000E-06,+221.0050263E-03
-38.7000E-06,+163.5750185E-03
-38.6000E-06,+192.2900225E-03
-38.5000E-06,+134.8600147E-03
-38.4000E-06,+19.9999996E-03
-38.3000E-06,+134.8600149E-03
-38.2000E-06,+19.9999996E-03
-38.1000E-06,+77.4300071E-03
-38.0000E-06,+163.5750185E-03
-37.9000E-06,+19.9999996E-03
-37.8000E-06,+19.9999996E-03
-37.7000E-06,+19.9999996E-03
-37.6000E-06,-181.0050271E-03
-37.5000E-06,-181.0050271E-03
-37.4000E-06,-181.0050271E-03
-37.3000E-06,-238.4350349E-03
-37.2000E-06,-382.0100538E-03
-37.1000E-06,-181.0050271E-03
-37.0000E-06,-382.0100538E-03
-36.9000E-06,-267.1500385E-03
-36.8000E-06,-181.0050271E-03
-36.7000E-06,-181.0050271E-03
-36.6000E-06,-181.0050271E-03
-36.5000E-06,-152.2900234E-03
-36.4000E-06,-181.0050271E-03
-36.3000E-06,+19.9999996E-03
-36.2000E-06,+19.9999996E-03
-36.1000E-06,+221.0050263E-03
-36.0000E-06,+278.4350338E-03
-35.9000E-06,+422.0100529E-03
-35.8000E-06,+422.0100529E-03
-35.7000E-06,+335.8650414E-03
-35.6000E-06,+422.0100529E-03
-35.5000E-06,+307.1500376E-03
-35.4000E-06,+422.0100529E-03
-35.3000E-06,+221.0050263E-03
-35.2000E-06,+221.0050263E-03
-35.1000E-06,+192.2900225E-03
-35.0000E-06,+19.9999996E-03
-34.9000E-06,+19.9999996E-03
-34.8000E-06,-181.0050271E-03
-34.7000E-06,-181.0050271E-03
-34.6000E-06,-181.0050271E-03
-34.5000E-06,-525.5850728E-03
-34.4000E-06,-382.0100538E-03
-34.3000E-06,-583.0150805E-03
-34.2000E-06,-583.0150805E-03
-34.1000E-06,-583.0150805E-03
-34.0000E-06,-583.0150805E-03
-33.9000E-06,-583.0150805E-03
-33.8000E-06,-525.5850728E-03
-33.7000E-06,-382.0100538E-03
-33.6000E-06,-382.0100538E-03
-33.5000E-06,-382.0100538E-03
-33.4000E-06,-382.0100538E-03
-33.3000E-06,-382.0100538E-03
-33.2000E-06,+19.9999996E-03
-33.1000E-06,-123.5750194E-03
-33.0000E-06,-8.7150042E-03
-32.9000E-06,+19.9999996E-03
-32.8000E-06,+19.9999996E-03
-32.7000E-06,+134.8600149E-03
-32.6000E-06,+48.7150035E-03
-32.5000E-06,+77.4300071E-03
-32.4000E-06,+221.0050263E-03
-32.3000E-06,+48.7150033E-03
-32.2000E-06,+221.0050263E-03
-32.1000E-06,+221.0050262E-03
-32.0000E-06,+221.0050263E-03
-31.9000E-06,+19.9999996E-03
-31.8000E-06,+221.0050263E-03
-31.7000E-06,+221.0050263E-03
-31.6000E-06,+221.0050263E-03
-31.5000E-06,+134.8600147E-03
-31.4000E-06,+221.0050263E-03
-31.3000E-06,+221.0050263E-03
-31.2000E-06,+48.7150035E-03
-31.1000E-06,+19.9999996E-03
-31.0000E-06,+19.9999996E-03
-30.9000E-06,-152.2900234E-03
-30.8000E-06,-181.0050271E-03
-30.7000E-06,-382.0100538E-03
-30.6000E-06,-382.0100538E-03
-30.5000E-06,-583.0150805E-03
-30.4000E-06,-583.0150805E-03
-30.3000E-06,-439.4400616E-03
-30.2000E-06,-382.0100538E-03
-30.1000E-06,-382.0100538E-03
-30.0000E-06,-382.0100538E-03
-29.9000E-06,-382.0100538E-03
-29.8000E-06,-181.0050271E-03
-29.7000E-06,-382.0100538E-03
-29.6000E-06,-181.0050271E-03
-29.5000E-06,-181.0050271E-03
-29.4000E-06,-181.0050271E-03
-29.3000E-06,-181.0050271E-03
-29.2000E-06,-66.1450118E-03
-29.1000E-06,+19.9999996E-03
-29.0000E-06,-181.0050271E-03
-28.9000E-06,-181.0050271E-03
-28.8000E-06,-181.0050271E-03
-28.7000E-06,-66.1450120E-03
-28.6000E-06,-181.0050271E-03
-28.5000E-06,-181.0050271E-03
-28.4000E-06,-181.0050271E-03
-28.3000E-06,-123.5750196E-03
-28.2000E-06,-181.0050271E-03
-28.1000E-06,-181.0050271E-03
-28.0000E-06,-66.1450120E-03
-27.9000E-06,+19.9999995E-03
-27.8000E-06,-66.1450118E-03
-27.7000E-06,+19.9999996E-03
-27.6000E-06,-37.4300080E-03
-27.5000E-06,+19.9999996E-03
-27.4000E-06,+19.9999996E-03
-27.3000E-06,+19.9999996E-03
-27.2000E-06,+221.0050262E-03
-27.1000E-06,+19.9999996E-03
-27.0000E-06,+19.9999996E-03
-26.9000E-06,+19.9999996E-03
-26.8000E-06,+19.9999996E-03
-26.7000E-06,+19.9999996E-03
-26.6000E-06,+19.9999996E-03
-26.5000E-06,+19.9999996E-03
-26.4000E-06,+19.9999996E-03
-26.3000E-06,-181.0050271E-03
-26.2000E-06,-123.5750196E-03
-26.1000E-06,+19.9999996E-03
-26.0000E-06,+19.9999996E-03
-25.9000E-06,+19.9999996E-03
-25.8000E-06,+19.9999996E-03
-25.7000E-06,+19.9999996E-03
-25.6000E-06,+192.2900223E-03
-25.5000E-06,+19.9999996E-03
-25.4000E-06,+19.9999996E-03
-25.3000E-06,+19.9999996E-03
-25.2000E-06,+134.8600147E-03
-25.1000E-06,+19.9999996E-03
-25.0000E-06,+221.0050263E-03
-24.9000E-06,+19.9999996E-03
-24.8000E-06,+221.0050263E-03
-24.7000E-06,+19.9999996E-03
-24.6000E-06,+19.9999996E-03
-24.5000E-06,-66.1450120E-03
-24.4000E-06,+19.9999995E-03
-24.3000E-06,-181.0050271E-03
-24.2000E-06,-209.7200311E-03
-24.1000E-06,-181.0050271E-03
-24.0000E-06,-324.5800461E-03
-23.9000E-06,-181.0050271E-03
-23.8000E-06,-181.0050271E-03
-23.7000E-06,-382.0100538E-03
-23.6000E-06,-295.8650425E-03
-23.5000E-06,-353.2950499E-03
-23.4000E-06,-238.4350347E-03
-23.3000E-06,-181.0050271E-03
-23.2000E-06,-382.0100538E-03
-23.1000E-06,-295.8650423E-03
-23.0000E-06,-181.0050271E-03
-22.9000E-06,-382.0100538E-03
-22.8000E-06,-353.2950499E-03
-22.7000E-06,-181.0050271E-03
-22.6000E-06,-181.0050271E-03
-22.5000E-06,-181.0050271E-03
-22.4000E-06,-181.0050271E-03
-22.3000E-06,-181.0050271E-03
-22.2000E-06,-181.0050271E-03
-22.1000E-06,-181.0050271E-03
-22.0000E-06,-181.0050271E-03
-21.9000E-06,-181.0050271E-03
-21.8000E-06,+19.9999996E-03
-21.7000E-06,-181.0050271E-03
-21.6000E-06,+19.9999996E-03
-21.5000E-06,+19.9999996E-03
-21.4000E-06,+19.9999996E-03
-21.3000E-06,+221.0050263E-03
-21.2000E-06,+221.0050263E-03
-21.1000E-06,+221.0050263E-03
-21.0000E-06,+221.0050263E-03
-20.9000E-06,+221.0050263E-03
-20.8000E-06,+335.8650416E-03
-20.7000E-06,+393.2950490E-03
-20.6000E-06,+422.0100529E-03
-20.5000E-06,+278.4350340E-03
-20.4000E-06,+221.0050263E-03
-20.3000E-06,+221.0050263E-03
-20.2000E-06,+19.9999996E-03
-20.1000E-06,+19.9999996E-03
-20.0000E-06,+19.9999996E-03
-19.9000E-06,-181.0050271E-03
-19.8000E-06,-181.0050271E-03
-19.7000E-06,-353.2950501E-03
-19.6000E-06,-181.0050271E-03
-19.5000E-06,-181.0050271E-03
-19.4000E-06,-382.0100538E-03
-19.3000E-06,-181.0050271E-03
-19.2000E-06,+19.9999996E-03
-19.1000E-06,-181.0050271E-03
-19.0000E-06,-181.0050271E-03
-18.9000E-06,-94.8600156E-03
-18.8000E-06,-181.0050271E-03
-18.7000E-06,-66.1450118E-03
-18.6000E-06,-8.7150044E-03
-18.5000E-06,-181.0050271E-03
-18.4000E-06,-238.4350349E-03
-18.3000E-06,-181.0050271E-03
-18.2000E-06,-295.8650423E-03
-18.1000E-06,-382.0100538E-03
-18.0000E-06,-181.0050271E-03
-17.9000E-06,-353.2950499E-03
-17.8000E-06,-181.0050271E-03
-17.7000E-06,-181.0050271E-03
-17.6000E-06,-181.0050271E-03
-17.5000E-06,-181.0050271E-03
-17.4000E-06,-181.0050271E-03
-17.3000E-06,-94.8600158E-03
-17.2000E-06,-152.2900232E-03
-17.1000E-06,-123.5750196E-03
-17.0000E-06,-181.0050271E-03
-16.9000E-06,-152.2900234E-03
-16.8000E-06,+19.9999996E-03
-16.7000E-06,+19.9999996E-03
-16.6000E-06,+19.9999996E-03
-16.5000E-06,+48.7150035E-03
-16.4000E-06,+221.0050263E-03
-16.3000E-06,+163.5750185E-03
-16.2000E-06,+192.2900225E-03
-16.1000E-06,+221.0050263E-03
-16.0000E-06,+221.0050263E-03
-15.9000E-06,+221.0050263E-03
-15.8000E-06,+48.7150035E-03
-15.7000E-06,+77.4300071E-03
-15.6000E-06,+19.9999996E-03
-15.5000E-06,+19.9999996E-03
-15.4000E-06,-94.8600156E-03
-15.3000E-06,-382.0100538E-03
-15.2000E-06,-382.0100538E-03
-15.1000E-06,-382.0100538E-03
-15.0000E-06,-583.0150805E-03
-14.9000E-06,-583.0150805E-03
-14.8000E-06,-583.0150805E-03
-14.7000E-06,-784.0201072E-03
-14.6000E-06,-583.0150805E-03
-14.5000E-06,-697.8750959E-03
-14.4000E-06,-784.0201072E-03
-14.3000E-06,-583.0150805E-03
-14.2000E-06,-583.0150805E-03
-14.1000E-06,-382.0100538E-03
-14.0000E-06,-382.0100538E-03
-13.9000E-06,-382.0100538E-03
-13.8000E-06,-181.0050271E-03
-13.7000E-06,+19.9999996E-03
-13.6000E-06,+163.5750187E-03
-13.5000E-06,+221.0050263E-03
-13.4000E-06,+422.0100529E-03
-13.3000E-06,+536.8700681E-03
-13.2000E-06,+623.0150796E-03
-13.1000E-06,+824.0201063E-03
-13.0000E-06,+824.0201063E-03
-12.9000E-06,+881.4501139E-03
-12.8000E-06,+1.0250251330E+00
-12.7000E-06,+1.0250251330E+00
-12.6000E-06,+824.0201063E-03
-12.5000E-06,+824.0201063E-03
-12.4000E-06,+737.8750950E-03
-12.3000E-06,+623.0150796E-03
-12.2000E-06,+422.0100529E-03
-12.1000E-06,+221.0050263E-03
-12.0000E-06,+19.9999996E-03
-11.9000E-06,-66.1450120E-03
-11.8000E-06,-382.0100538E-03
-11.7000E-06,-583.0150805E-03
-11.6000E-06,-583.0150805E-03
-11.5000E-06,-927.5951264E-03
-11.4000E-06,-985.0251339E-03
-11.3000E-06,-1.1573151569E+00
-11.2000E-06,-1.1860301606E+00
-11.1000E-06,-1.1860301606E+00
-11.0000E-06,-1.2721751720E+00
-10.9000E-06,-1.1860301606E+00
-10.8000E-06,-985.0251339E-03
-10.7000E-06,-985.0251339E-03
-10.6000E-06,-784.0201072E-03
-10.5000E-06,-697.8750957E-03
-10.4000E-06,-382.0100539E-03
-10.3000E-06,-382.0100538E-03
-10.2000E-06,-353.2950499E-03
-10.1000E-06,-181.0050271E-03
-10.0000E-06,-37.4300082E-03
-9.9000E-06,+19.9999996E-03
-9.8000E-06,+106.1450111E-03
-9.7000E-06,+19.9999996E-03
-9.6000E-06,+221.0050263E-03
-9.5000E-06,+221.0050263E-03
-9.4000E-06,+221.0050263E-03
-9.3000E-06,+422.0100529E-03
-9.2000E-06,+422.0100529E-03
-9.1000E-06,+623.0150796E-03
-9.0000E-06,+422.0100529E-03
-8.9000E-06,+623.0150796E-03
-8.8000E-06,+594.3000757E-03
-8.7000E-06,+623.0150796E-03
-8.6000E-06,+623.0150796E-03
-8.5000E-06,+623.0150796E-03
-8.4000E-06,+508.1550645E-03
-8.3000E-06,+422.0100529E-03
-8.2000E-06,+221.0050263E-03
-8.1000E-06,+221.0050263E-03
-8.0000E-06,+221.0050263E-03
-7.9000E-06,+19.9999996E-03
-7.8000E-06,-8.7150042E-03
-7.7000E-06,-181.0050271E-03
-7.6000E-06,-382.0100538E-03
-7.5000E-06,-583.0150805E-03
-7.4000E-06,-583.0150805E-03
-7.3000E-06,-583.0150805E-03
-7.2000E-06,-583.0150805E-03
-7.1000E-06,-784.0201072E-03
-7.0000E-06,-784.0201072E-03
-6.9000E-06,-583.0150805E-03
-6.8000E-06,-784.0201072E-03
-6.7000E-06,-583.0150805E-03
-6.6000E-06,-583.0150805E-03
-6.5000E-06,-382.0100538E-03
-6.4000E-06,-382.0100538E-03
-6.3000E-06,-181.0050271E-03
-6.2000E-06,-181.0050271E-03
-6.1000E-06,+19.9999996E-03
-6.0000E-06,+19.9999996E-03
-5.9000E-06,+19.9999996E-03
-5.8000E-06,+221.0050263E-03
-5.7000E-06,+48.7150033E-03
-5.6000E-06,+106.1450111E-03
-5.5000E-06,+221.0050263E-03
-5.4000E-06,+106.1450109E-03
-5.3000E-06,+48.7150035E-03
-5.2000E-06,+221.0050263E-03
-5.1000E-06,+77.4300073E-03
-5.0000E-06,+221.0050263E-03
-4.9000E-06,+19.9999996E-03
-4.8000E-06,+19.9999996E-03
-4.7000E-06,+134.8600149E-03
-4.6000E-06,+192.2900223E-03
-4.5000E-06,+77.4300071E-03
-4.4000E-06,+19.9999996E-03
-4.3000E-06,+19.9999996E-03
-4.2000E-06,+19.9999996E-03
-4.1000E-06,-181.0050271E-03
-4.0000E-06,+19.9999996E-03
-3.9000E-06,-181.0050271E-03
-3.8000E-06,-181.0050271E-03
-3.7000E-06,-324.5800461E-03
-3.6000E-06,-181.0050271E-03
-3.5000E-06,-267.1500387E-03
-3.4000E-06,-181.0050271E-03
-3.3000E-06,-267.1500385E-03
-3.2000E-06,-181.0050271E-03
-3.1000E-06,-238.4350347E-03
-3.0000E-06,-382.0100538E-03
-2.9000E-06,-353.2950501E-03
-2.8000E-06,-181.0050271E-03
-2.7000E-06,-382.0100538E-03
-2.6000E-06,-382.0100538E-03
-2.5000E-06,-181.0050271E-03
-2.4000E-06,-238.4350347E-03
-2.3000E-06,-181.0050271E-03
-2.2000E-06,-353.2950501E-03
-2.1000E-06,-94.8600156E-03
-2.0000E-06,+19.9999996E-03
-1.9000E-06,+19.9999996E-03
-1.8000E-06,+48.7150035E-03
-1.7000E-06,+221.0050263E-03
-1.6000E-06,+163.5750185E-03
-1.5000E-06,+221.0050263E-03
-1.4000E-06,+221.0050263E-03
-1.3000E-06,+221.0050263E-03
-1.2000E-06,+134.8600149E-03
-1.1000E-06,+221.0050263E-03
-1.0000E-06,+221.0050263E-03
-900.0E-09,+77.4300073E-03
-800.0E-09,+192.2900225E-03
-700.0E-09,+19.9999996E-03
-600.0E-09,+221.0050263E-03
-500.0E-09,+422.0100529E-03
-400.0E-09,+623.0150796E-03
-300.0E-09,+824.0201063E-03
-200.0E-09,+1.2260301597E+00
-100.0E-09,+1.8003302361E+00
+0.0E+00,+2.0300502665E+00
+100.0E-09,+1.8290452398E+00
+200.0E-09,+1.2260301597E+00
+300.0E-09,+422.0100529E-03
+400.0E-09,-382.0100538E-03
+500.0E-09,-1.3870351873E+00
+600.0E-09,-2.3920603208E+00
+700.0E-09,-3.4832304658E+00
+800.0E-09,-4.4021105878E+00
+900.0E-09,-5.1199856832E+00
+1.0000E-06,-5.6368557519E+00
+1.1000E-06,-6.2111558281E+00
+1.2000E-06,-6.4695908625E+00
+1.3000E-06,-6.6418808852E+00
+1.4000E-06,-6.4983058663E+00
+1.5000E-06,-6.4121608548E+00
+1.6000E-06,-6.0101508014E+00
+1.7000E-06,-5.6081407480E+00
+1.8000E-06,-4.8615506487E+00
+1.9000E-06,-4.2011055611E+00
+2.0000E-06,-3.4258004580E+00
+2.1000E-06,-2.6792103591E+00
+2.2000E-06,-1.7890452407E+00
+2.3000E-06,-985.0251339E-03
+2.4000E-06,-181.0050271E-03
+2.5000E-06,+422.0100529E-03
+2.6000E-06,+1.2834601675E+00
+2.7000E-06,+1.8290452398E+00
+2.8000E-06,+2.2310552932E+00
+2.9000E-06,+2.8340703733E+00
+3.0000E-06,+3.2360804267E+00
+3.1000E-06,+3.4370854534E+00
+3.2000E-06,+3.6380904801E+00
+3.3000E-06,+3.6380904801E+00
+3.4000E-06,+3.4658004571E+00
+3.5000E-06,+3.5232304650E+00
+3.6000E-06,+3.2360804267E+00
+3.7000E-06,+2.9202153847E+00
+3.8000E-06,+2.6330653466E+00
+3.9000E-06,+2.2310552932E+00
+4.0000E-06,+1.6280402131E+00
+4.1000E-06,+1.2260301597E+00
+4.2000E-06,+824.0201063E-03
+4.3000E-06,+221.0050263E-03
+4.4000E-06,-66.1450118E-03
+4.5000E-06,-583.0150805E-03
+4.6000E-06,-784.0201072E-03
+4.7000E-06,-1.1860301606E+00
+4.8000E-06,-1.5880402140E+00
+4.9000E-06,-1.9039052559E+00
+5.0000E-06,-1.9900502674E+00
+5.1000E-06,-1.9900502674E+00
+5.2000E-06,-2.1910552941E+00
+5.3000E-06,-2.1910552941E+00
+5.4000E-06,-2.1910552941E+00
+5.5000E-06,-1.9900502674E+00
+5.6000E-06,-1.9900502674E+00
+5.7000E-06,-1.5880402140E+00
+5.8000E-06,-1.5880402140E+00
+5.9000E-06,-1.3870351873E+00
+6.0000E-06,-985.0251339E-03
+6.1000E-06,-784.0201072E-03
+6.2000E-06,-554.3000768E-03
+6.3000E-06,-181.0050271E-03
+6.4000E-06,+19.9999996E-03
+6.5000E-06,+221.0050263E-03
+6.6000E-06,+422.0100529E-03
+6.7000E-06,+623.0150796E-03
+6.8000E-06,+824.0201063E-03
+6.9000E-06,+1.1973151560E+00
+7.0000E-06,+1.5131801980E+00
+7.1000E-06,+1.8290452397E+00
+7.2000E-06,+2.0300502665E+00
+7.3000E-06,+2.0300502665E+00
+7.4000E-06,+2.0300502665E+00
+7.5000E-06,+1.8290452398E+00
+7.6000E-06,+2.0013352628E+00
+7.7000E-06,+1.6280402131E+00
+7.8000E-06,+1.6280402130E+00
+7.9000E-06,+1.2260301597E+00
+8.0000E-06,+1.0250251330E+00
+8.1000E-06,+623.0150796E-03
+8.2000E-06,+422.0100529E-03
+8.3000E-06,+422.0100529E-03
+8.4000E-06,+221.0050263E-03
+8.5000E-06,+19.9999996E-03
+8.6000E-06,-94.8600158E-03
+8.7000E-06,-181.0050271E-03
+8.8000E-06,-181.0050271E-03
+8.9000E-06,-181.0050271E-03
+9.0000E-06,-181.0050271E-03
+9.1000E-06,-181.0050271E-03
+9.2000E-06,-181.0050272E-03
+9.3000E-06,-181.0050271E-03
+9.4000E-06,-181.0050271E-03
+9.5000E-06,-181.0050271E-03
+9.6000E-06,-181.0050271E-03
+9.7000E-06,-181.0050271E-03
+9.8000E-06,-66.1450120E-03
+9.9000E-06,-181.0050271E-03
+10.0000E-06,-181.0050271E-03
+10.1000E-06,-8.7150044E-03
+10.2000E-06,+19.9999996E-03
+10.3000E-06,+19.9999996E-03
+10.4000E-06,+192.2900225E-03
+10.5000E-06,+307.1500378E-03
+10.6000E-06,+422.0100529E-03
+10.7000E-06,+508.1550643E-03
+10.8000E-06,+795.3051024E-03
+10.9000E-06,+1.0250251330E+00
+11.0000E-06,+1.2260301597E+00
+11.1000E-06,+1.4270351864E+00
+11.2000E-06,+1.5131801980E+00
+11.3000E-06,+1.8290452398E+00
+11.4000E-06,+2.1449102819E+00
+11.5000E-06,+2.4320603199E+00
+11.6000E-06,+2.5756353391E+00
+11.7000E-06,+2.8340703733E+00
+11.8000E-06,+3.0350754000E+00
+11.9000E-06,+3.0350754000E+00
+12.0000E-06,+3.0350754000E+00
+12.1000E-06,+3.1212204114E+00
+12.2000E-06,+3.2360804267E+00
+12.3000E-06,+3.0350754000E+00
+12.4000E-06,+2.9776453923E+00
+12.5000E-06,+2.8627853770E+00
+12.6000E-06,+2.7192103582E+00
+12.7000E-06,+2.6330653466E+00
+12.8000E-06,+2.3172003046E+00
+12.9000E-06,+2.0300502665E+00
+13.0000E-06,+1.7716152323E+00
+13.1000E-06,+1.2260301597E+00
+13.2000E-06,+1.0250251330E+00
+13.3000E-06,+508.1550645E-03
+13.4000E-06,+19.9999996E-03
+13.5000E-06,-382.0100538E-03
+13.6000E-06,-985.0251339E-03
+13.7000E-06,-1.4444651949E+00
+13.8000E-06,-2.0474802752E+00
+13.9000E-06,-2.7653553705E+00
+14.0000E-06,-3.1960804276E+00
+14.1000E-06,-3.5980904810E+00
+14.2000E-06,-4.0862455458E+00
+14.3000E-06,-4.4021105878E+00
+14.4000E-06,-4.8041206412E+00
+14.5000E-06,-4.8041206412E+00
+14.6000E-06,-4.8328356449E+00
+14.7000E-06,-4.8041206412E+00
+14.8000E-06,-4.6031156145E+00
+14.9000E-06,-4.4882555992E+00
+15.0000E-06,-4.2011055611E+00
+15.1000E-06,-3.7416655002E+00
+15.2000E-06,-3.1960804276E+00
+15.3000E-06,-2.8227853779E+00
+15.4000E-06,-2.3920603208E+00
+15.5000E-06,-1.7890452407E+00
+15.6000E-06,-1.1860301606E+00
+15.7000E-06,-583.0150805E-03
+15.8000E-06,-37.4300080E-03
+15.9000E-06,+623.0150796E-03
+16.0000E-06,+1.1973151560E+00
+16.1000E-06,+1.5418952016E+00
+16.2000E-06,+2.0300502665E+00
+16.3000E-06,+2.3172003046E+00
+16.4000E-06,+2.4607753238E+00
+16.5000E-06,+2.4320603199E+00
+16.6000E-06,+2.4320603199E+00
+16.7000E-06,+2.2310552932E+00
+16.8000E-06,+1.8290452398E+00
+16.9000E-06,+1.4270351863E+00
+17.0000E-06,+1.0250251330E+00
+17.1000E-06,+594.3000757E-03
+17.2000E-06,-37.4300080E-03
+17.3000E-06,-583.0150805E-03
+17.4000E-06,-956.3101302E-03
+17.5000E-06,-1.5018952025E+00
+17.6000E-06,-1.7890452407E+00
+17.7000E-06,-2.1049102828E+00
+17.8000E-06,-2.5930653475E+00
+17.9000E-06,-2.7940703742E+00
+18.0000E-06,-3.0525054086E+00
+18.1000E-06,-3.1960804276E+00
+18.2000E-06,-3.3970854543E+00
+18.3000E-06,-3.3970854542E+00
+18.4000E-06,-3.3970854543E+00
+18.5000E-06,-3.1960804276E+00
+18.6000E-06,-3.1386504201E+00
+18.7000E-06,-2.7940703742E+00
+18.8000E-06,-2.4207753245E+00
+18.9000E-06,-2.1910552941E+00
+19.0000E-06,-1.7890452407E+00
+19.1000E-06,-1.3870351873E+00
+19.2000E-06,-784.0201072E-03
+19.3000E-06,-382.0100538E-03
+19.4000E-06,+221.0050263E-03
+19.5000E-06,+824.0201063E-03
+19.6000E-06,+1.8290452398E+00
+19.7000E-06,+3.0350754000E+00
+19.8000E-06,+4.2411055602E+00
+19.9000E-06,+5.4471357204E+00
+20.0000E-06,+6.6531658806E+00
+20.1000E-06,+7.7156210218E+00
+20.2000E-06,+9.0365111972E+00
+20.3000E-06,+9.5820962695E+00
+20.4000E-06,+9.2662312277E+00
+20.5000E-06,+8.5483561322E+00
+20.6000E-06,+7.4571859874E+00
+20.7000E-06,+6.0501508005E+00
+20.8000E-06,+4.6431156136E+00
+20.9000E-06,+3.2360804267E+00
+21.0000E-06,+1.8290452398E+00
+21.1000E-06,+422.0100529E-03
+21.2000E-06,-870.1651186E-03
+21.3000E-06,-2.3920603208E+00
+21.4000E-06,-3.5980904810E+00
+21.5000E-06,-5.0051256679E+00
+21.6000E-06,-6.3834458511E+00
+21.7000E-06,-7.5033309998E+00
+21.8000E-06,-8.8242211751E+00
+21.9000E-06,-10.0302513354E+00
+22.0000E-06,-10.8342714421E+00
+22.1000E-06,-10.8342714421E+00
+22.2000E-06,-10.4322613887E+00
+22.3000E-06,-9.6282412820E+00
+22.4000E-06,-8.4222111218E+00
+22.5000E-06,-7.0151759349E+00
+22.6000E-06,-5.4071357213E+00
+22.7000E-06,-3.5980904810E+00
+22.8000E-06,-1.8464752483E+00
+22.9000E-06,-525.5850728E-03
+23.0000E-06,+623.0150796E-03
+23.1000E-06,+1.8290452398E+00
+23.2000E-06,+2.8340703733E+00
+23.3000E-06,+3.4370854534E+00
+23.4000E-06,+4.2411055602E+00
+23.5000E-06,+4.7866906328E+00
+23.6000E-06,+5.0451256670E+00
+23.7000E-06,+5.2461306937E+00
+23.8000E-06,+5.3322757052E+00
+23.9000E-06,+5.0451256671E+00
+24.0000E-06,+4.8441206403E+00
+24.1000E-06,+4.6144006097E+00
+24.2000E-06,+4.1836755527E+00
+24.3000E-06,+3.6380904801E+00
+24.4000E-06,+3.0350754000E+00
+24.5000E-06,+2.4320603199E+00
+24.6000E-06,+1.6280402131E+00
+24.7000E-06,+1.0250251330E+00
+24.8000E-06,+221.0050263E-03
+24.9000E-06,-238.4350347E-03
+25.0000E-06,-841.4501150E-03
+25.1000E-06,-1.3870351873E+00
+25.2000E-06,-1.7890452407E+00
+25.3000E-06,-2.3920603208E+00
+25.4000E-06,-2.5930653475E+00
+25.5000E-06,-2.7940703742E+00
+25.6000E-06,-2.9950754009E+00
+25.7000E-06,-3.1960804276E+00
+25.8000E-06,-2.9950754009E+00
+25.9000E-06,-2.9950754009E+00
+26.0000E-06,-2.9950754008E+00
+26.1000E-06,-2.5930653475E+00
+26.2000E-06,-2.3920603208E+00
+26.3000E-06,-2.1910552941E+00
+26.4000E-06,-1.7890452407E+00
+26.5000E-06,-1.5593252103E+00
+26.6000E-06,-985.0251339E-03
+26.7000E-06,-583.0150805E-03
+26.8000E-06,-295.8650425E-03
+26.9000E-06,+192.2900223E-03
+27.0000E-06,+364.5800454E-03
+27.1000E-06,+824.0201063E-03
+27.2000E-06,+824.0201063E-03
+27.3000E-06,+1.1111701446E+00
+27.4000E-06,+1.4270351864E+00
+27.5000E-06,+1.5131801978E+00
+27.6000E-06,+1.6280402131E+00
+27.7000E-06,+1.6280402131E+00
+27.8000E-06,+1.6280402131E+00
+27.9000E-06,+1.6280402131E+00
+28.0000E-06,+1.4270351864E+00
+28.1000E-06,+1.4270351864E+00
+28.2000E-06,+1.2260301597E+00
+28.3000E-06,+1.0250251330E+00
+28.4000E-06,+680.4450872E-03
+28.5000E-06,+623.0150796E-03
+28.6000E-06,+422.0100529E-03
+28.7000E-06,+221.0050263E-03
+28.8000E-06,-181.0050271E-03
+28.9000E-06,-295.8650425E-03
+29.0000E-06,-382.0100538E-03
+29.1000E-06,-583.0150805E-03
+29.2000E-06,-726.5900995E-03
+29.3000E-06,-784.0201072E-03
+29.4000E-06,-898.8801224E-03
+29.5000E-06,-985.0251339E-03
+29.6000E-06,-1.0711701453E+00
+29.7000E-06,-1.0137401378E+00
+29.8000E-06,-985.0251339E-03
+29.9000E-06,-1.1286001529E+00
+30.0000E-06,-985.0251339E-03
+30.1000E-06,-898.8801224E-03
+30.2000E-06,-784.0201072E-03
+30.3000E-06,-583.0150805E-03
+30.4000E-06,-583.0150805E-03
+30.5000E-06,-382.0100538E-03
+30.6000E-06,-382.0100538E-03
+30.7000E-06,-181.0050271E-03
+30.8000E-06,-66.1450120E-03
+30.9000E-06,+19.9999996E-03
+31.0000E-06,+106.1450109E-03
+31.1000E-06,+221.0050263E-03
+31.2000E-06,+221.0050263E-03
+31.3000E-06,+364.5800452E-03
+31.4000E-06,+422.0100529E-03
+31.5000E-06,+536.8700681E-03
+31.6000E-06,+422.0100529E-03
+31.7000E-06,+508.1550643E-03
+31.8000E-06,+422.0100529E-03
+31.9000E-06,+422.0100529E-03
+32.0000E-06,+623.0150796E-03
+32.1000E-06,+422.0100529E-03
+32.2000E-06,+422.0100529E-03
+32.3000E-06,+221.0050263E-03
+32.4000E-06,+221.0050263E-03
+32.5000E-06,+19.9999996E-03
+32.6000E-06,+19.9999996E-03
+32.7000E-06,+19.9999996E-03
+32.8000E-06,-181.0050271E-03
+32.9000E-06,-181.0050271E-03
+33.0000E-06,-181.0050271E-03
+33.1000E-06,-382.0100538E-03
+33.2000E-06,-382.0100538E-03
+33.3000E-06,-382.0100538E-03
+33.4000E-06,-382.0100538E-03
+33.5000E-06,-554.3000768E-03
+33.6000E-06,-382.0100538E-03
+33.7000E-06,-583.0150805E-03
+33.8000E-06,-583.0150805E-03
+33.9000E-06,-382.0100538E-03
+34.0000E-06,-382.0100538E-03
+34.1000E-06,-181.0050271E-03
+34.2000E-06,-8.7150042E-03
+34.3000E-06,+508.1550645E-03
+34.4000E-06,+1.4270351864E+00
+34.5000E-06,+2.2310552932E+00
+34.6000E-06,+3.4370854534E+00
+34.7000E-06,+4.2411055602E+00
+34.8000E-06,+5.0451256670E+00
+34.9000E-06,+5.4471357204E+00
+35.0000E-06,+5.6481407471E+00
+35.1000E-06,+6.0501508005E+00
+35.2000E-06,+6.0501508005E+00
+35.3000E-06,+6.0501508005E+00
+35.4000E-06,+6.0501508005E+00
+35.5000E-06,+5.7055707548E+00
+35.6000E-06,+5.2748456974E+00
+35.7000E-06,+4.7579756288E+00
+35.8000E-06,+4.0401005335E+00
+35.9000E-06,+3.0350754000E+00
+36.0000E-06,+2.0300502665E+00
+36.1000E-06,+1.0250251330E+00
+36.2000E-06,-238.4350349E-03
+36.3000E-06,-1.5880402140E+00
+36.4000E-06,-2.7940703742E+00
+36.5000E-06,-4.0001005344E+00
+36.6000E-06,-5.0051256679E+00
+36.7000E-06,-5.6368557519E+00
+36.8000E-06,-6.2685858356E+00
+36.9000E-06,-6.6131658815E+00
+37.0000E-06,-6.8141709082E+00
+37.1000E-06,-6.8141709082E+00
+37.2000E-06,-6.8141709082E+00
+37.3000E-06,-6.4121608548E+00
+37.4000E-06,-5.9814357975E+00
+37.5000E-06,-5.2061306946E+00
+37.6000E-06,-4.8041206412E+00
+37.7000E-06,-3.7990955077E+00
+37.8000E-06,-2.9950754009E+00
+37.9000E-06,-1.9900502674E+00
+38.0000E-06,-985.0251339E-03
+38.1000E-06,+19.9999996E-03
+38.2000E-06,+1.2260301597E+00
+38.3000E-06,+2.2310552932E+00
+38.4000E-06,+3.2360804267E+00
+38.5000E-06,+4.0401005335E+00
+38.6000E-06,+4.8441206403E+00
+38.7000E-06,+5.2461306937E+00
+38.8000E-06,+5.4471357204E+00
+38.9000E-06,+5.4471357204E+00
+39.0000E-06,+5.2461306937E+00
+39.1000E-06,+5.0451256670E+00
+39.2000E-06,+4.6431156136E+00
+39.3000E-06,+4.0401005335E+00
+39.4000E-06,+3.4370854534E+00
+39.5000E-06,+2.6617803505E+00
+39.6000E-06,+2.0300502665E+00
+39.7000E-06,+1.2260301597E+00
+39.8000E-06,+623.0150796E-03
+39.9000E-06,+19.9999996E-03
+40.0000E-06,-784.0201072E-03
+40.1000E-06,-1.3870351873E+00
+40.2000E-06,-2.1623402902E+00
+40.3000E-06,-2.7366403667E+00
+40.4000E-06,-3.1960804276E+00
+40.5000E-06,-3.5693754773E+00
+40.6000E-06,-3.8852405193E+00
+40.7000E-06,-4.0001005345E+00
+40.8000E-06,-4.0001005344E+00
+40.9000E-06,-4.1723905572E+00
+41.0000E-06,-3.8565255152E+00
+41.1000E-06,-3.6555204887E+00
+41.2000E-06,-3.4258004580E+00
+41.3000E-06,-3.1960804276E+00
+41.4000E-06,-2.7940703742E+00
+41.5000E-06,-2.4782053322E+00
+41.6000E-06,-1.7890452407E+00
+41.7000E-06,-1.3870351873E+00
+41.8000E-06,-784.0201072E-03
+41.9000E-06,-382.0100538E-03
+42.0000E-06,+221.0050263E-03
+42.1000E-06,+623.0150797E-03
+42.2000E-06,+1.2260301597E+00
+42.3000E-06,+1.6280402131E+00
+42.4000E-06,+2.1736252857E+00
+42.5000E-06,+2.4320603199E+00
+42.6000E-06,+2.4320603199E+00
+42.7000E-06,+2.5469203351E+00
+42.8000E-06,+2.6330653466E+00
+42.9000E-06,+2.2310552932E+00
+43.0000E-06,+1.8290452398E+00
+43.1000E-06,+1.4270351864E+00
+43.2000E-06,+1.0250251330E+00
+43.3000E-06,+422.0100529E-03
+43.4000E-06,+19.9999996E-03
+43.5000E-06,-382.0100539E-03
+43.6000E-06,-898.8801226E-03
+43.7000E-06,-1.3870351873E+00
+43.8000E-06,-1.7890452407E+00
+43.9000E-06,-2.0474802752E+00
+44.0000E-06,-2.3920603208E+00
+44.1000E-06,-2.5069203360E+00
+44.2000E-06,-2.3920603209E+00
+44.3000E-06,-2.4782053322E+00
+44.4000E-06,-2.3920603208E+00
+44.5000E-06,-2.1910552941E+00
+44.6000E-06,-1.8464752485E+00
+44.7000E-06,-1.5880402140E+00
+44.8000E-06,-1.2721751722E+00
+44.9000E-06,-985.0251339E-03
+45.0000E-06,-583.0150805E-03
+45.1000E-06,-353.2950499E-03
+45.2000E-06,+163.5750187E-03
+45.3000E-06,+422.0100529E-03
+45.4000E-06,+795.3051026E-03
+45.5000E-06,+1.0250251330E+00
+45.6000E-06,+1.4270351864E+00
+45.7000E-06,+1.6280402131E+00
+45.8000E-06,+1.6280402131E+00
+45.9000E-06,+1.7716152323E+00
+46.0000E-06,+1.8290452398E+00
+46.1000E-06,+1.5993252094E+00
+46.2000E-06,+1.4270351864E+00
+46.3000E-06,+1.2260301597E+00
+46.4000E-06,+1.0250251330E+00
+46.5000E-06,+824.0201063E-03
+46.6000E-06,+422.0100529E-03
+46.7000E-06,+221.0050263E-03
+46.8000E-06,+19.9999996E-03
+46.9000E-06,-382.0100538E-03
+47.0000E-06,-382.0100540E-03
+47.1000E-06,-784.0201072E-03
+47.2000E-06,-985.0251339E-03
+47.3000E-06,-1.1286001531E+00
+47.4000E-06,-1.1860301606E+00
+47.5000E-06,-1.1860301606E+00
+47.6000E-06,-1.1860301606E+00
+47.7000E-06,-1.1860301605E+00
+47.8000E-06,-1.0998851493E+00
+47.9000E-06,-985.0251339E-03
+48.0000E-06,-784.0201072E-03
+48.1000E-06,-583.0150805E-03
+48.2000E-06,-410.7250575E-03
+48.3000E-06,-382.0100538E-03
+48.4000E-06,-181.0050273E-03
+48.5000E-06,-181.0050271E-03
+48.6000E-06,+19.9999996E-03
+48.7000E-06,+221.0050263E-03
+48.8000E-06,+221.0050263E-03
+48.9000E-06,+594.3000759E-03
+49.0000E-06,+623.0150796E-03
+49.1000E-06,+824.0201063E-03
+49.2000E-06,+824.0201063E-03
+49.3000E-06,+824.0201063E-03
+49.4000E-06,+824.0201063E-03
+49.5000E-06,+824.0201063E-03
+49.6000E-06,+795.3051026E-03
+49.7000E-06,+508.1550645E-03
+49.8000E-06,+221.0050264E-03
+49.9000E-06,+221.0050263E-03
+50.0000E-06,+221.0050263E-03
+50.1000E-06,-181.0050271E-03
+50.2000E-06,-181.0050271E-03
+50.3000E-06,-382.0100538E-03
+50.4000E-06,-583.0150805E-03
+50.5000E-06,-784.0201072E-03
+50.6000E-06,-669.1600919E-03
+50.7000E-06,-812.7351112E-03
+50.8000E-06,-985.0251339E-03
+50.9000E-06,-985.0251339E-03
+51.0000E-06,-985.0251339E-03
+51.1000E-06,-1.0711701455E+00
+51.2000E-06,-985.0251339E-03
+51.3000E-06,-985.0251339E-03
+51.4000E-06,-985.0251339E-03
+51.5000E-06,-784.0201072E-03
+51.6000E-06,-583.0150805E-03
+51.7000E-06,-382.0100538E-03
+51.8000E-06,-181.0050271E-03
+51.9000E-06,+19.9999997E-03
+52.0000E-06,+221.0050263E-03
+52.1000E-06,+623.0150796E-03
+52.2000E-06,+680.4450872E-03
+52.3000E-06,+1.0250251330E+00
+52.4000E-06,+1.0250251330E+00
+52.5000E-06,+1.2260301597E+00
+52.6000E-06,+1.4270351863E+00
+52.7000E-06,+1.2260301597E+00
+52.8000E-06,+1.4270351864E+00
+52.9000E-06,+1.5706102056E+00
+53.0000E-06,+1.4270351864E+00
+53.1000E-06,+1.3983201827E+00
+53.2000E-06,+1.2260301597E+00
+53.3000E-06,+1.0250251330E+00
+53.4000E-06,+938.8801217E-03
+53.5000E-06,+623.0150796E-03
+53.6000E-06,+623.0150796E-03
+53.7000E-06,+422.0100529E-03
+53.8000E-06,+221.0050263E-03
+53.9000E-06,+19.9999996E-03
+54.0000E-06,-181.0050271E-03
+54.1000E-06,-295.8650425E-03
+54.2000E-06,-583.0150805E-03
+54.3000E-06,-726.5900997E-03
+54.4000E-06,-784.0201072E-03
+54.5000E-06,-985.0251339E-03
+54.6000E-06,-985.0251339E-03
+54.7000E-06,-1.1860301605E+00
+54.8000E-06,-1.0711701453E+00
+54.9000E-06,-956.3101300E-03
+55.0000E-06,-784.0201072E-03
+55.1000E-06,-784.0201072E-03
+55.2000E-06,-410.7250575E-03
+55.3000E-06,-382.0100538E-03
+55.4000E-06,-181.0050271E-03
+55.5000E-06,+19.9999996E-03
+55.6000E-06,+19.9999996E-03
+55.7000E-06,+221.0050263E-03
+55.8000E-06,+221.0050263E-03
+55.9000E-06,+249.7200299E-03
+56.0000E-06,+422.0100529E-03
+56.1000E-06,+422.0100529E-03
+56.2000E-06,+536.8700683E-03
+56.3000E-06,+422.0100529E-03
+56.4000E-06,+422.0100529E-03
+56.5000E-06,+623.0150796E-03
+56.6000E-06,+594.3000760E-03
+56.7000E-06,+422.0100529E-03
+56.8000E-06,+623.0150795E-03
+56.9000E-06,+508.1550643E-03
+57.0000E-06,+422.0100529E-03
+57.1000E-06,+221.0050263E-03
+57.2000E-06,+221.0050263E-03
+57.3000E-06,+221.0050263E-03
+57.4000E-06,+221.0050263E-03
+57.5000E-06,+19.9999996E-03
+57.6000E-06,+19.9999996E-03
+57.7000E-06,+19.9999996E-03
+57.8000E-06,+19.9999996E-03
+57.9000E-06,-123.5750194E-03
+58.0000E-06,-8.7150041E-03
+58.1000E-06,-66.1450120E-03
+58.2000E-06,-181.0050271E-03
+58.3000E-06,-181.0050271E-03
+58.4000E-06,-8.7150044E-03
+58.5000E-06,-181.0050271E-03
+58.6000E-06,-181.0050271E-03
+58.7000E-06,-152.2900235E-03
+58.8000E-06,-181.0050271E-03
+58.9000E-06,-181.0050271E-03
+59.0000E-06,-66.1450118E-03
+59.1000E-06,-8.7150044E-03
+59.2000E-06,+19.9999996E-03
+59.3000E-06,+19.9999996E-03
+59.4000E-06,+192.2900226E-03
+59.5000E-06,+106.1450111E-03
+59.6000E-06,+221.0050261E-03
+59.7000E-06,+221.0050263E-03
+59.8000E-06,+221.0050263E-03
+59.9000E-06,+221.0050263E-03
+60.0000E-06,+221.0050263E-03
+60.1000E-06,+221.0050263E-03
+60.2000E-06,+19.9999996E-03
+60.3000E-06,+19.9999996E-03
+60.4000E-06,+19.9999996E-03
+60.5000E-06,-152.2900232E-03
+60.6000E-06,-123.5750196E-03
+60.7000E-06,-181.0050271E-03
+60.8000E-06,-382.0100538E-03
+60.9000E-06,-382.0100538E-03
+61.0000E-06,-382.0100538E-03
+61.1000E-06,-382.0100538E-03
+61.2000E-06,-382.0100538E-03
+61.3000E-06,-382.0100538E-03
+61.4000E-06,-525.5850728E-03
+61.5000E-06,-382.0100538E-03
+61.6000E-06,-382.0100538E-03
+61.7000E-06,-181.0050271E-03
+61.8000E-06,-181.0050271E-03
+61.9000E-06,-152.2900232E-03
+62.0000E-06,+19.9999996E-03
+62.1000E-06,+19.9999996E-03
+62.2000E-06,+19.9999996E-03
+62.3000E-06,+19.9999996E-03
+62.4000E-06,+19.9999994E-03
+62.5000E-06,-94.8600158E-03
+62.6000E-06,-181.0050271E-03
+62.7000E-06,-181.0050271E-03
+62.8000E-06,-181.0050271E-03
+62.9000E-06,-181.0050271E-03
+63.0000E-06,-181.0050271E-03
+63.1000E-06,-181.0050271E-03
+63.2000E-06,-382.0100538E-03
+63.3000E-06,-181.0050271E-03
+63.4000E-06,-181.0050271E-03
+63.5000E-06,-123.5750194E-03
+63.6000E-06,-181.0050271E-03
+63.7000E-06,-181.0050271E-03
+63.8000E-06,-181.0050270E-03
+63.9000E-06,+19.9999996E-03
+64.0000E-06,+19.9999996E-03
+64.1000E-06,+19.9999996E-03
+64.2000E-06,+19.9999996E-03
+64.3000E-06,+48.7150032E-03
+64.4000E-06,+19.9999996E-03
+64.5000E-06,+19.9999996E-03
+64.6000E-06,+19.9999996E-03
+64.7000E-06,+19.9999996E-03
+64.8000E-06,-123.5750197E-03
+64.9000E-06,-181.0050271E-03
+65.0000E-06,-181.0050271E-03
+65.1000E-06,-181.0050271E-03
+65.2000E-06,-382.0100538E-03
+65.3000E-06,-583.0150805E-03
+65.4000E-06,-583.0150805E-03
+65.5000E-06,-583.0150805E-03
+65.6000E-06,-583.0150805E-03
+65.7000E-06,-784.0201072E-03
+65.8000E-06,-784.0201072E-03
+65.9000E-06,-784.0201072E-03
+66.0000E-06,-583.0150805E-03
+66.1000E-06,-583.0150805E-03
+66.2000E-06,-583.0150805E-03
+66.3000E-06,-583.0150805E-03
+66.4000E-06,-583.0150805E-03
+66.5000E-06,-468.1550654E-03
+66.6000E-06,-583.0150805E-03
+66.7000E-06,-468.1550651E-03
+66.8000E-06,-382.0100538E-03
+66.9000E-06,-382.0100538E-03
+67.0000E-06,-238.4350349E-03
+67.1000E-06,-181.0050271E-03
+67.2000E-06,-181.0050271E-03
+67.3000E-06,-181.0050270E-03
+67.4000E-06,+19.9999996E-03
+67.5000E-06,-8.7150044E-03
+67.6000E-06,+77.4300070E-03
+67.7000E-06,+19.9999996E-03
+67.8000E-06,+221.0050263E-03
+67.9000E-06,+221.0050263E-03
+68.0000E-06,+221.0050263E-03
+68.1000E-06,+221.0050263E-03
+68.2000E-06,+221.0050263E-03
+68.3000E-06,+163.5750188E-03
+68.4000E-06,+163.5750185E-03
+68.5000E-06,+19.9999996E-03
+68.6000E-06,-66.1450120E-03
+68.7000E-06,+19.9999996E-03
+68.8000E-06,-94.8600158E-03
+68.9000E-06,-152.2900232E-03
+69.0000E-06,-181.0050271E-03
+69.1000E-06,-181.0050271E-03
+69.2000E-06,-181.0050271E-03
+69.3000E-06,-295.8650423E-03
+69.4000E-06,-382.0100538E-03
+69.5000E-06,-382.0100538E-03
+69.6000E-06,-382.0100538E-03
+69.7000E-06,-583.0150805E-03
+69.8000E-06,-583.0150805E-03
+69.9000E-06,-583.0150805E-03
+70.0000E-06,-784.0201072E-03
+70.1000E-06,-583.0150807E-03
+70.2000E-06,-669.1600918E-03
+70.3000E-06,-583.0150805E-03
+70.4000E-06,-583.0150805E-03
+70.5000E-06,-382.0100538E-03
+70.6000E-06,-353.2950502E-03
+70.7000E-06,-295.8650423E-03
+70.8000E-06,-181.0050271E-03
+70.9000E-06,+106.1450109E-03
+71.0000E-06,+221.0050263E-03
+71.1000E-06,+364.5800455E-03
+71.2000E-06,+422.0100529E-03
+71.3000E-06,+594.3000760E-03
+71.4000E-06,+422.0100529E-03
+71.5000E-06,+422.0100529E-03
+71.6000E-06,+623.0150796E-03
+71.7000E-06,+422.0100529E-03
+71.8000E-06,+422.0100529E-03
+71.9000E-06,+623.0150796E-03
+72.0000E-06,+422.0100529E-03
+72.1000E-06,+335.8650414E-03
+72.2000E-06,+221.0050263E-03
+72.3000E-06,+221.0050263E-03
+72.4000E-06,+19.9999996E-03
+72.5000E-06,-123.5750197E-03
+72.6000E-06,-181.0050271E-03
+72.7000E-06,-181.0050271E-03
+72.8000E-06,-382.0100538E-03
+72.9000E-06,-382.0100538E-03
+73.0000E-06,-382.0100538E-03
+73.1000E-06,-382.0100538E-03
+73.2000E-06,-382.0100538E-03
+73.3000E-06,-382.0100538E-03
+73.4000E-06,-209.7200308E-03
+73.5000E-06,-181.0050271E-03
+73.6000E-06,-181.0050271E-03
+73.7000E-06,-181.0050271E-03
+73.8000E-06,-181.0050271E-03
+73.9000E-06,-324.5800464E-03
+74.0000E-06,-181.0050271E-03
+74.1000E-06,-181.0050271E-03
+74.2000E-06,-181.0050271E-03
+74.3000E-06,-181.0050271E-03
+74.4000E-06,-66.1450117E-03
+74.5000E-06,-181.0050271E-03
+74.6000E-06,+19.9999996E-03
+74.7000E-06,-37.4300082E-03
+74.8000E-06,-152.2900235E-03
+74.9000E-06,+19.9999996E-03
+75.0000E-06,-181.0050271E-03
+75.1000E-06,-66.1450117E-03
+75.2000E-06,+19.9999996E-03
+75.3000E-06,-123.5750197E-03
+75.4000E-06,-37.4300082E-03
+75.5000E-06,+19.9999996E-03
+75.6000E-06,-94.8600156E-03
+75.7000E-06,+19.9999996E-03
+75.8000E-06,+19.9999996E-03
+75.9000E-06,+192.2900223E-03
+76.0000E-06,+77.4300070E-03
+76.1000E-06,+19.9999996E-03
+76.2000E-06,+221.0050263E-03
+76.3000E-06,+106.1450111E-03
+76.4000E-06,+221.0050263E-03
+76.5000E-06,+221.0050263E-03
+76.6000E-06,+221.0050263E-03
+76.7000E-06,+163.5750188E-03
+76.8000E-06,+221.0050263E-03
+76.9000E-06,+221.0050263E-03
+77.0000E-06,+221.0050263E-03
+77.1000E-06,+221.0050263E-03
+77.2000E-06,+19.9999996E-03
+77.3000E-06,+19.9999996E-03
+77.4000E-06,-37.4300079E-03
+77.5000E-06,-181.0050271E-03
+77.6000E-06,-353.2950502E-03
+77.7000E-06,-295.8650422E-03
+77.8000E-06,-181.0050273E-03
+77.9000E-06,-382.0100538E-03
+78.0000E-06,-382.0100538E-03
+78.1000E-06,-382.0100538E-03
+78.2000E-06,-238.4350349E-03
+78.3000E-06,-353.2950502E-03
+78.4000E-06,-181.0050271E-03
+78.5000E-06,-181.0050271E-03
+78.6000E-06,-181.0050271E-03
+78.7000E-06,+19.9999996E-03
+78.8000E-06,+221.0050263E-03
+78.9000E-06,+221.0050263E-03
+79.0000E-06,+221.0050263E-03
+79.1000E-06,+221.0050263E-03
+79.2000E-06,+422.0100529E-03
+79.3000E-06,+307.1500375E-03
+79.4000E-06,+393.2950490E-03
+79.5000E-06,+422.0100529E-03
+79.6000E-06,+221.0050263E-03
+79.7000E-06,+393.2950493E-03
+79.8000E-06,+221.0050263E-03
+79.9000E-06,+221.0050263E-03
+80.0000E-06,+221.0050263E-03
+80.1000E-06,+19.9999996E-03
+80.2000E-06,+19.9999996E-03
+80.3000E-06,-37.4300082E-03
+80.4000E-06,+19.9999996E-03
+80.5000E-06,-181.0050271E-03
+80.6000E-06,-181.0050270E-03
+80.7000E-06,+19.9999996E-03
+80.8000E-06,+19.9999996E-03
+80.9000E-06,+19.9999996E-03
+81.0000E-06,+19.9999996E-03
+81.1000E-06,+19.9999996E-03
+81.2000E-06,+19.9999996E-03
+81.3000E-06,+19.9999996E-03
+81.4000E-06,+19.9999996E-03
+81.5000E-06,+19.9999996E-03
+81.6000E-06,+19.9999996E-03
+81.7000E-06,-37.4300082E-03
+81.8000E-06,-152.2900235E-03
+81.9000E-06,-66.1450120E-03
+82.0000E-06,-181.0050271E-03
+82.1000E-06,-181.0050271E-03
+82.2000E-06,-209.7200311E-03
+82.3000E-06,-382.0100538E-03
+82.4000E-06,-324.5800461E-03
+82.5000E-06,-209.7200308E-03
+82.6000E-06,+19.9999996E-03
+82.7000E-06,+19.9999996E-03
+82.8000E-06,+134.8600150E-03
+82.9000E-06,+19.9999996E-03
+83.0000E-06,+221.0050263E-03
+83.1000E-06,+221.0050263E-03
+83.2000E-06,+221.0050263E-03
+83.3000E-06,+134.8600146E-03
+83.4000E-06,+221.0050263E-03
+83.5000E-06,+221.0050263E-03
+83.6000E-06,+192.2900223E-03
+83.7000E-06,+19.9999996E-03
+83.8000E-06,+19.9999996E-03
+83.9000E-06,+19.9999996E-03
+84.0000E-06,-66.1450121E-03
+84.1000E-06,-181.0050271E-03
+84.2000E-06,-94.8600159E-03
+84.3000E-06,-181.0050271E-03
+84.4000E-06,-37.4300079E-03
+84.5000E-06,-37.4300082E-03
+84.6000E-06,+19.9999996E-03
+84.7000E-06,+19.9999996E-03
+84.8000E-06,+19.9999996E-03
+84.9000E-06,+19.9999996E-03
+85.0000E-06,+19.9999996E-03
+85.1000E-06,+77.4300070E-03
+85.2000E-06,+19.9999996E-03
+85.3000E-06,-181.0050271E-03
+85.4000E-06,-94.8600155E-03
+85.5000E-06,-181.0050271E-03
+85.6000E-06,-295.8650426E-03
+85.7000E-06,-181.0050271E-03
+85.8000E-06,-238.4350346E-03
+85.9000E-06,-181.0050271E-03
+86.0000E-06,-209.7200308E-03
+86.1000E-06,-295.8650422E-03
+86.2000E-06,-181.0050273E-03
+86.3000E-06,-181.0050271E-03
+86.4000E-06,-8.7150044E-03
+86.5000E-06,-181.0050271E-03
+86.6000E-06,-123.5750194E-03
+86.7000E-06,-181.0050271E-03
+86.8000E-06,+19.9999996E-03
+86.9000E-06,+19.9999997E-03
+87.0000E-06,+19.9999996E-03
+87.1000E-06,+48.7150035E-03
+87.2000E-06,+19.9999996E-03
+87.3000E-06,+77.4300073E-03
+87.4000E-06,+19.9999996E-03
+87.5000E-06,+221.0050263E-03
+87.6000E-06,+422.0100526E-03
+87.7000E-06,+221.0050263E-03
+87.8000E-06,+221.0050263E-03
+87.9000E-06,+163.5750188E-03
+88.0000E-06,+77.4300073E-03
+88.1000E-06,+48.7150032E-03
+88.2000E-06,-181.0050271E-03
+88.3000E-06,-181.0050271E-03
+88.4000E-06,-181.0050271E-03
+88.5000E-06,-181.0050271E-03
+88.6000E-06,-181.0050271E-03
+88.7000E-06,-238.4350349E-03
+88.8000E-06,-382.0100538E-03
+88.9000E-06,-382.0100538E-03
+89.0000E-06,-382.0100538E-03
+89.1000E-06,-382.0100538E-03
+89.2000E-06,-382.0100538E-03
+89.3000E-06,-439.4400613E-03
+89.4000E-06,-238.4350349E-03
+89.5000E-06,-209.7200308E-03
+89.6000E-06,-382.0100538E-03
+89.7000E-06,-181.0050271E-03
+89.8000E-06,-66.1450117E-03
+89.9000E-06,-152.2900232E-03
+90.0000E-06,+19.9999996E-03
+90.1000E-06,+19.9999996E-03
+90.2000E-06,+19.9999996E-03
+90.3000E-06,+106.1450112E-03
+90.4000E-06,+221.0050261E-03
+90.5000E-06,+221.0050263E-03
+90.6000E-06,+19.9999996E-03
+90.7000E-06,+19.9999996E-03
+90.8000E-06,+19.9999996E-03
+90.9000E-06,-152.2900235E-03
+91.0000E-06,+19.9999996E-03
+91.1000E-06,+19.9999996E-03
+91.2000E-06,+19.9999996E-03
+91.3000E-06,+19.9999996E-03
+91.4000E-06,-123.5750197E-03
+91.5000E-06,-123.5750193E-03
+91.6000E-06,-152.2900235E-03
+91.7000E-06,+19.9999996E-03
+91.8000E-06,+19.9999996E-03
+91.9000E-06,+19.9999996E-03
+92.0000E-06,+19.9999996E-03
+92.1000E-06,+19.9999996E-03
+92.2000E-06,+19.9999996E-03
+92.3000E-06,+19.9999996E-03
+92.4000E-06,+221.0050263E-03
+92.5000E-06,+221.0050263E-03
+92.6000E-06,+221.0050263E-03
+92.7000E-06,+19.9999996E-03
+92.8000E-06,+221.0050263E-03
+92.9000E-06,+19.9999996E-03
+93.0000E-06,-181.0050271E-03
+93.1000E-06,-181.0050271E-03
+93.2000E-06,-181.0050271E-03
+93.3000E-06,-181.0050271E-03
+93.4000E-06,-181.0050271E-03
+93.5000E-06,-181.0050271E-03
+93.6000E-06,-181.0050271E-03
+93.7000E-06,-209.7200308E-03
+93.8000E-06,-181.0050271E-03
+93.9000E-06,-382.0100537E-03
+94.0000E-06,-181.0050271E-03
+94.1000E-06,-181.0050271E-03
+94.2000E-06,-181.0050271E-03
+94.3000E-06,-181.0050271E-03
+94.4000E-06,-181.0050271E-03
+94.5000E-06,-382.0100538E-03
+94.6000E-06,-181.0050273E-03
+94.7000E-06,-181.0050271E-03
+94.8000E-06,-382.0100538E-03
+94.9000E-06,-181.0050271E-03
+95.0000E-06,-181.0050271E-03
+95.1000E-06,-181.0050271E-03
+95.2000E-06,+19.9999996E-03
+95.3000E-06,+19.9999996E-03
+95.4000E-06,+19.9999996E-03
+95.5000E-06,+48.7150035E-03
+95.6000E-06,+221.0050263E-03
+95.7000E-06,+221.0050263E-03
+95.8000E-06,+19.9999996E-03
+95.9000E-06,+134.8600146E-03
+96.0000E-06,+19.9999996E-03
+96.1000E-06,+106.1450108E-03
+96.2000E-06,+221.0050263E-03
+96.3000E-06,+163.5750188E-03
+96.4000E-06,+163.5750184E-03
+96.5000E-06,+192.2900226E-03
+96.6000E-06,+19.9999996E-03
+96.7000E-06,+19.9999996E-03
+96.8000E-06,+19.9999996E-03
+96.9000E-06,+19.9999996E-03
+97.0000E-06,-181.0050271E-03
+97.1000E-06,-123.5750193E-03
+97.2000E-06,-181.0050271E-03
+97.3000E-06,-181.0050271E-03
+97.4000E-06,-181.0050271E-03
+97.5000E-06,-181.0050271E-03
+97.6000E-06,-209.7200311E-03
+97.7000E-06,-181.0050271E-03
+97.8000E-06,-181.0050271E-03
+97.9000E-06,-181.0050271E-03
+98.0000E-06,-181.0050271E-03
+98.1000E-06,-181.0050271E-03
+98.2000E-06,+19.9999996E-03
+98.3000E-06,+192.2900223E-03
+98.4000E-06,+221.0050263E-03
+98.5000E-06,+221.0050263E-03
+98.6000E-06,+249.7200299E-03
+98.7000E-06,+307.1500379E-03
+98.8000E-06,+221.0050264E-03
+98.9000E-06,+307.1500375E-03
+99.0000E-06,+422.0100529E-03
+99.1000E-06,+422.0100529E-03
+99.2000E-06,+221.0050263E-03
+99.3000E-06,+221.0050263E-03
+99.4000E-06,+221.0050263E-03
+99.5000E-06,+221.0050263E-03
+99.6000E-06,+134.8600150E-03
+99.7000E-06,+19.9999996E-03
+99.8000E-06,+19.9999996E-03
+99.9000E-06,-123.5750193E-03
